RISCV/tb.vcd
$date
	Sun Mar 23 23:05:07 2025
$end
$version
	Icarus Verilog
$end
$timescale
	1ps
$end
$scope module tb $end
$var wire 32 ! X0 [31:0] $end
$var wire 32 " a0 [31:0] $end
$var wire 32 # a1 [31:0] $end
$var wire 32 $ a2 [31:0] $end
$var wire 32 % a3 [31:0] $end
$var wire 32 & a4 [31:0] $end
$var wire 32 ' a5 [31:0] $end
$var wire 32 ( a6 [31:0] $end
$var wire 32 ) a7 [31:0] $end
$var wire 32 * gp [31:0] $end
$var wire 32 + ra [31:0] $end
$var wire 32 , s0 [31:0] $end
$var wire 32 - s1 [31:0] $end
$var wire 32 . s10 [31:0] $end
$var wire 32 / s11 [31:0] $end
$var wire 32 0 s2 [31:0] $end
$var wire 32 1 s3 [31:0] $end
$var wire 32 2 s4 [31:0] $end
$var wire 32 3 s5 [31:0] $end
$var wire 32 4 s6 [31:0] $end
$var wire 32 5 s7 [31:0] $end
$var wire 32 6 s8 [31:0] $end
$var wire 32 7 s9 [31:0] $end
$var wire 32 8 sp [31:0] $end
$var wire 32 9 t0 [31:0] $end
$var wire 32 : t1 [31:0] $end
$var wire 32 ; t2 [31:0] $end
$var wire 32 < t3 [31:0] $end
$var wire 32 = t4 [31:0] $end
$var wire 32 > t5 [31:0] $end
$var wire 32 ? t6 [31:0] $end
$var wire 32 @ tp [31:0] $end
$var wire 32 A min [31:0] $end
$var wire 32 B max [31:0] $end
$var reg 1 C clk $end
$var reg 1 D reset $end
$scope module riscv_DUT $end
$var wire 1 C clk $end
$var wire 1 D reset $end
$var wire 1 E Zero $end
$var wire 32 F WriteData [31:0] $end
$var wire 32 G SrcB [31:0] $end
$var wire 32 H SrcA [31:0] $end
$var wire 2 I ResultSrc [1:0] $end
$var wire 32 J Result [31:0] $end
$var wire 1 K RegWrite $end
$var wire 32 L ReadData [31:0] $end
$var wire 32 M PCTarget [31:0] $end
$var wire 1 N PCSrc $end
$var wire 32 O PCPlus4 [31:0] $end
$var wire 32 P PCNext [31:0] $end
$var wire 32 Q PC [31:0] $end
$var wire 1 R MemWrite $end
$var wire 32 S Inst [31:0] $end
$var wire 2 T ImmSrc [1:0] $end
$var wire 32 U ImmExt [31:0] $end
$var wire 1 V ALUSrc $end
$var wire 32 W ALUResult [31:0] $end
$var wire 4 X ALUCtl [3:0] $end
$var parameter 32 Y WIDHT $end
$scope module ALU $end
$var wire 32 Z ALUResult [31:0] $end
$var wire 1 E Zero $end
$var wire 32 [ SrcB [31:0] $end
$var wire 32 \ SrcA [31:0] $end
$var wire 4 ] ALUCtl [3:0] $end
$var parameter 32 ^ ADD $end
$var parameter 32 _ AND $end
$var parameter 32 ` BGE $end
$var parameter 32 a BGEU $end
$var parameter 32 b BLT $end
$var parameter 32 c BLTU $end
$var parameter 32 d BNE $end
$var parameter 32 e OR $end
$var parameter 32 f SLL $end
$var parameter 32 g SLT $end
$var parameter 32 h SLTU $end
$var parameter 32 i SRA $end
$var parameter 32 j SRL $end
$var parameter 32 k SUB $end
$var parameter 32 l WIDTH $end
$var parameter 32 m XOR $end
$var reg 32 n temp [31:0] $end
$upscope $end
$scope module AdderPC $end
$var wire 32 o SrcB [31:0] $end
$var wire 32 p SrcA [31:0] $end
$var wire 32 q Result [31:0] $end
$var parameter 32 r WIDTH $end
$upscope $end
$scope module AdderPCTarget $end
$var wire 32 s SrcB [31:0] $end
$var wire 32 t SrcA [31:0] $end
$var wire 32 u Result [31:0] $end
$var parameter 32 v WIDTH $end
$upscope $end
$scope module ControlUnit $end
$var wire 1 w AndOut $end
$var wire 1 N PCSrc $end
$var wire 1 E Zero $end
$var wire 3 x func3 [2:0] $end
$var wire 1 y func7_5 $end
$var wire 7 z opcode [6:0] $end
$var wire 2 { ResultSrc [1:0] $end
$var wire 1 K RegWrite $end
$var wire 1 R MemWrite $end
$var wire 1 | Jump $end
$var wire 2 } ImmSrc [1:0] $end
$var wire 1 ~ Branch $end
$var wire 1 V ALUSrc $end
$var wire 2 !" ALUOp [1:0] $end
$var wire 4 "" ALUCtl [3:0] $end
$scope module ALUDecoder $end
$var wire 4 #" ALUCtl [3:0] $end
$var wire 3 $" func3 [2:0] $end
$var wire 1 y func7_5 $end
$var wire 1 %" opcode_5 $end
$var wire 2 &" ALUOp [1:0] $end
$var parameter 32 '" ADD $end
$var parameter 32 (" AND $end
$var parameter 32 )" BGE $end
$var parameter 32 *" BGEU $end
$var parameter 32 +" BLT $end
$var parameter 32 ," BLTU $end
$var parameter 32 -" BNE $end
$var parameter 32 ." Branch_Type $end
$var parameter 32 /" IR_Type $end
$var parameter 32 0" Load_Store_Type $end
$var parameter 32 1" OR $end
$var parameter 32 2" SLL $end
$var parameter 32 3" SLT $end
$var parameter 32 4" SLTU $end
$var parameter 32 5" SRA $end
$var parameter 32 6" SRL $end
$var parameter 32 7" SUB $end
$var parameter 32 8" XOR $end
$var reg 4 9" temp [3:0] $end
$upscope $end
$scope module MainDecoder $end
$var wire 7 :" opcode [6:0] $end
$var parameter 32 ;" B_Type $end
$var parameter 32 <" BranchInst $end
$var parameter 32 =" Branch_Type $end
$var parameter 32 >" IR_Type $end
$var parameter 32 ?" I_Type $end
$var parameter 32 @" I_TypeInst $end
$var parameter 32 A" J_Type $end
$var parameter 32 B" J_TypeInst $end
$var parameter 32 C" LoadInst $end
$var parameter 32 D" Load_Store_Type $end
$var parameter 32 E" R_TypeInst $end
$var parameter 32 F" S_Type $end
$var parameter 32 G" StoreInst $end
$var reg 2 H" ALUOp [1:0] $end
$var reg 1 V ALUSrc $end
$var reg 1 ~ Branch $end
$var reg 2 I" ImmSrc [1:0] $end
$var reg 1 | Jump $end
$var reg 1 R MemWrite $end
$var reg 1 K RegWrite $end
$var reg 2 J" ResultSrc [1:0] $end
$upscope $end
$upscope $end
$scope module DataMemory $end
$var wire 32 K" A [31:0] $end
$var wire 1 C CLK $end
$var wire 1 R WE $end
$var wire 32 L" WD [31:0] $end
$var wire 32 M" RD [31:0] $end
$var parameter 32 N" Width $end
$upscope $end
$scope module ImmExtnd $end
$var wire 2 O" InstType [1:0] $end
$var wire 25 P" Instr [31:7] $end
$var parameter 32 Q" B_Type $end
$var parameter 32 R" I_Type $end
$var parameter 32 S" J_Type $end
$var parameter 32 T" S_Type $end
$var reg 32 U" ImmExt [31:0] $end
$upscope $end
$scope module InstructionMemory $end
$var wire 32 V" readAddr [31:0] $end
$var wire 32 W" inst [31:0] $end
$upscope $end
$scope module MuxALU $end
$var wire 32 X" B [31:0] $end
$var wire 1 V S $end
$var wire 32 Y" Y [31:0] $end
$var wire 32 Z" A [31:0] $end
$var parameter 32 [" WIDTH $end
$upscope $end
$scope module MuxPC $end
$var wire 32 \" A [31:0] $end
$var wire 32 ]" B [31:0] $end
$var wire 1 N S $end
$var wire 32 ^" Y [31:0] $end
$var parameter 32 _" WIDTH $end
$upscope $end
$scope module MuxWriteData $end
$var wire 32 `" A [31:0] $end
$var wire 32 a" B [31:0] $end
$var wire 32 b" C [31:0] $end
$var wire 2 c" S [1:0] $end
$var wire 32 d" Y [31:0] $end
$var parameter 32 e" WIDTH $end
$var reg 32 f" temp [31:0] $end
$upscope $end
$scope module ProgramCounter $end
$var wire 1 C clk $end
$var wire 32 g" pc_in [31:0] $end
$var wire 1 D reset $end
$var wire 32 h" pc_out [31:0] $end
$var parameter 32 i" WIDTH $end
$var reg 32 j" temp [31:0] $end
$upscope $end
$scope module RegisterFile $end
$var wire 5 k" A1 [4:0] $end
$var wire 5 l" A2 [4:0] $end
$var wire 5 m" A3 [4:0] $end
$var wire 1 C CLK $end
$var wire 32 n" WD3 [31:0] $end
$var wire 1 K WE3 $end
$var wire 1 D reset $end
$var wire 32 o" RD2 [31:0] $end
$var wire 32 p" RD1 [31:0] $end
$var parameter 32 q" ADDR_WIDTH $end
$var parameter 32 r" DATA_WIDTH $end
$var integer 32 s" i [31:0] $end
$upscope $end
$upscope $end
$upscope $end
$enddefinitions $end
$comment Show the parameter values. $end
$dumpall
b100000 r"
b101 q"
b100000 i"
b100000 e"
b100000 _"
b100000 ["
b1 T"
b11 S"
b0 R"
b10 Q"
b100000 N"
b100011 G"
b1 F"
b110011 E"
b0 D"
b11 C"
b1101111 B"
b11 A"
b10011 @"
b0 ?"
b10 >"
b1 ="
b1100011 <"
b10 ;"
b101 8"
b1 7"
b110 6"
b111 5"
b100 4"
b11 3"
b10 2"
b1000 1"
b0 0"
b10 /"
b1 ."
b1010 -"
b1101 ,"
b1011 +"
b1110 *"
b1100 )"
b1001 ("
b0 '"
b100000 v
b100000 r
b101 m
b100000 l
b1 k
b110 j
b111 i
b100 h
b11 g
b10 f
b1000 e
b1010 d
b1101 c
b1011 b
b1110 a
b1100 `
b1001 _
b0 ^
b100000 Y
$end
#0
$dumpvars
bx s"
bx p"
bx o"
bx n"
bx m"
bx l"
bx k"
bx j"
bx h"
bx g"
bx f"
bx d"
bx c"
bx b"
bx a"
bx `"
bx ^"
bx ]"
bx \"
bx Z"
bx Y"
bx X"
bx W"
bx V"
bx U"
bx P"
bx O"
bx M"
bx L"
bx K"
bx J"
bx I"
bx H"
bx :"
bx 9"
bx &"
x%"
bx $"
bx #"
bx ""
bx !"
x~
bx }
x|
bx {
bx z
xy
bx x
xw
bx u
bx t
bx s
bx q
bx p
b100 o
bx n
bx ]
bx \
bx [
bx Z
bx X
bx W
xV
bx U
bx T
bx S
xR
bx Q
bx P
bx O
xN
bx M
bx L
xK
bx J
bx I
bx H
bx G
bx F
xE
1D
0C
bx B
bx A
bx @
bx ?
bx >
bx =
bx <
bx ;
bx :
bx 9
bx 8
bx 7
bx 6
bx 5
bx 4
bx 3
bx 2
bx 1
bx 0
bx /
bx .
bx -
bx ,
bx +
bx *
bx )
bx (
bx '
bx &
bx %
bx $
bx #
bx "
bx !
$end
#1000
b0 F
b0 L"
b0 Z"
b0 o"
b0 ?
b0 >
b0 =
b0 <
b0 /
b0 .
b0 7
b0 6
b0 5
b0 4
b0 3
b0 2
b0 1
b0 0
b0 )
b0 (
b0 '
b0 &
b0 %
b0 $
b0 #
b0 "
b0 -
b0 ,
b0 ;
b0 :
b0 9
b0 @
b0 *
b0 8
b0 +
b0 !
b100 P
b100 ^"
b100 g"
0E
b1010 W
b1010 Z
b1010 K"
b1010 `"
b1010 n
b1010 G
b1010 [
b1010 Y"
0N
0w
b1010 M
b1010 u
b1010 ]"
b1010 U
b1010 s
b1010 U"
b1010 X"
b0 H
b0 \
b0 p"
b0 X
b0 ]
b0 ""
b0 #"
b0 9"
0%"
1K
1V
0R
0|
0~
b10 !"
b10 &"
b10 H"
b0 T
b0 }
b0 I"
b0 O"
b0 I
b0 {
b0 J"
b0 c"
b10100000000000101 P"
b101 m"
b1010 l"
b0 k"
0y
b0 x
b0 $"
b10011 z
b10011 :"
b101000000000001010010011 S
b101000000000001010010011 W"
b1010 J
b1010 d"
b1010 n"
b1010 f"
b100 O
b100 q
b100 \"
b100 b"
b0 Q
b0 p
b0 t
b0 V"
b0 h"
b0 j"
b100000 s"
1C
#2000
0C
#3000
b100000 s"
1C
#4000
0C
#5000
b1010 9
b10100000000000110 P"
b110 m"
b101000000000001100010011 S
b101000000000001100010011 W"
b1000 P
b1000 ^"
b1000 g"
b1110 M
b1110 u
b1110 ]"
b1000 O
b1000 q
b1000 \"
b1000 b"
b100 Q
b100 p
b100 t
b100 V"
b100 h"
b100 j"
1C
0D
#6000
0C
#7000
b1010 :
b101 J
b101 d"
b101 n"
b101 f"
b101 W
b101 Z
b101 K"
b101 `"
b101 n
b101 G
b101 [
b101 Y"
b101 U
b101 s
b101 U"
b101 X"
b1010 F
b1010 L"
b1010 Z"
b1010 o"
b1010000000000111 P"
b111 m"
b101 l"
b10100000000001110010011 S
b10100000000001110010011 W"
b1100 P
b1100 ^"
b1100 g"
b1101 M
b1101 u
b1101 ]"
b1100 O
b1100 q
b1100 \"
b1100 b"
b1000 Q
b1000 p
b1000 t
b1000 V"
b1000 h"
b1000 j"
1C
#8000
0C
#9000
b101 ;
b1111 J
b1111 d"
b1111 n"
b1111 f"
b1111 W
b1111 Z
b1111 K"
b1111 `"
b1111 n
b1111 G
b1111 [
b1111 Y"
b1111 U
b1111 s
b1111 U"
b1111 X"
b0 F
b0 L"
b0 Z"
b0 o"
b11110000000011100 P"
b11100 m"
b1111 l"
b111100000000111000010011 S
b111100000000111000010011 W"
b10000 P
b10000 ^"
b10000 g"
b11011 M
b11011 u
b11011 ]"
b10000 O
b10000 q
b10000 \"
b10000 b"
b1100 Q
b1100 p
b1100 t
b1100 V"
b1100 h"
b1100 j"
1C
#10000
0C
#11000
b1111 <
b0 L
b0 M"
b0 a"
b11111111111111111111111111111111 J
b11111111111111111111111111111111 d"
b11111111111111111111111111111111 n"
b11111111111111111111111111111111 f"
b11111111111111111111111111111111 W
b11111111111111111111111111111111 Z
b11111111111111111111111111111111 K"
b11111111111111111111111111111111 `"
b11111111111111111111111111111111 n
b11111111111111111111111111111111 G
b11111111111111111111111111111111 [
b11111111111111111111111111111111 Y"
b11111111111111111111111111111111 U
b11111111111111111111111111111111 s
b11111111111111111111111111111111 U"
b11111111111111111111111111111111 X"
b1111111111110000000011101 P"
b11101 m"
b11111 l"
1y
b11111111111100000000111010010011 S
b11111111111100000000111010010011 W"
b10100 P
b10100 ^"
b10100 g"
b1111 M
b1111 u
b1111 ]"
b10100 O
b10100 q
b10100 \"
b10100 b"
b10000 Q
b10000 p
b10000 t
b10000 V"
b10000 h"
b10000 j"
1C
#12000
0C
#13000
b11111111111111111111111111111111 =
bx L
bx M"
bx a"
b0 J
b0 d"
b0 n"
b0 f"
1E
b0 W
b0 Z
b0 K"
b0 `"
b0 n
b0 G
b0 [
b0 Y"
b0 U
b0 s
b0 U"
b0 X"
b11110 P"
b11110 m"
b0 l"
0y
b111100010011 S
b111100010011 W"
b11000 P
b11000 ^"
b11000 g"
b10100 M
b10100 u
b10100 ]"
b11000 O
b11000 q
b11000 \"
b11000 b"
b10100 Q
b10100 p
b10100 t
b10100 V"
b10100 h"
b10100 j"
1C
#14000
0C
#15000
1N
b1010 G
b1010 [
b1010 Y"
1w
b1 X
b1 ]
b1 ""
b1 #"
b1 9"
b1000 U
b1000 s
b1000 U"
b1000 X"
b1010 F
b1010 L"
b1010 Z"
b1010 o"
b1010 H
b1010 \
b1010 p"
1%"
0K
0V
1~
b1 !"
b1 &"
b1 H"
b10 T
b10 }
b10 I"
b10 O"
b1100010100001000 P"
b1000 m"
b110 l"
b101 k"
b1100011 z
b1100011 :"
b11000101000010001100011 S
b11000101000010001100011 W"
b100000 P
b100000 ^"
b100000 g"
b100000 M
b100000 u
b100000 ]"
b11100 O
b11100 q
b11100 \"
b11100 b"
b11000 Q
b11000 p
b11000 t
b11000 V"
b11000 h"
b11000 j"
1C
#16000
0C
#17000
b1011 J
b1011 d"
b1011 n"
b1011 f"
0N
0E
b1011 W
b1011 Z
b1011 K"
b1011 `"
b1011 n
b1011 G
b1011 [
b1011 Y"
0w
b0 X
b0 ]
b0 ""
b0 #"
b0 9"
b1011 U
b1011 s
b1011 U"
b1011 X"
b0 F
b0 L"
b0 Z"
b0 o"
b0 H
b0 \
b0 p"
0%"
1K
1V
0~
b10 !"
b10 &"
b10 H"
b0 T
b0 }
b0 I"
b0 O"
b10110000000001010 P"
b1010 m"
b1011 l"
b0 k"
b10011 z
b10011 :"
b101100000000010100010011 S
b101100000000010100010011 W"
b100100 P
b100100 ^"
b100100 g"
b101011 M
b101011 u
b101011 ]"
b100100 O
b100100 q
b100100 \"
b100100 b"
b100000 Q
b100000 p
b100000 t
b100000 V"
b100000 h"
b100000 j"
1C
#18000
0C
#19000
b1011 "
1N
1w
b0 J
b0 d"
b0 n"
b0 f"
1E
b0 W
b0 Z
b0 K"
b0 `"
b0 n
b101 G
b101 [
b101 Y"
b1000 U
b1000 s
b1000 U"
b1000 X"
b101 F
b101 L"
b101 Z"
b101 o"
b1010 H
b1010 \
b1010 p"
b1010 X
b1010 ]
b1010 ""
b1010 #"
b1010 9"
1%"
0K
0V
1~
b1 !"
b1 &"
b1 H"
b10 T
b10 }
b10 I"
b10 O"
b1110010100101000 P"
b1000 m"
b111 l"
b101 k"
b1 x
b1 $"
b1100011 z
b1100011 :"
b11100101001010001100011 S
b11100101001010001100011 W"
b101100 P
b101100 ^"
b101100 g"
b101100 M
b101100 u
b101100 ]"
b101000 O
b101000 q
b101000 \"
b101000 b"
b100100 Q
b100100 p
b100100 t
b100100 V"
b100100 h"
b100100 j"
1C
#20000
0C
#21000
b10110 J
b10110 d"
b10110 n"
b10110 f"
0N
0E
b10110 W
b10110 Z
b10110 K"
b10110 `"
b10110 n
b10110 G
b10110 [
b10110 Y"
0w
b10110 U
b10110 s
b10110 U"
b10110 X"
b0 F
b0 L"
b0 Z"
b0 o"
b0 H
b0 \
b0 p"
b0 X
b0 ]
b0 ""
b0 #"
b0 9"
0%"
1K
1V
0~
b10 !"
b10 &"
b10 H"
b0 T
b0 }
b0 I"
b0 O"
b101100000000001011 P"
b1011 m"
b10110 l"
b0 k"
b0 x
b0 $"
b10011 z
b10011 :"
b1011000000000010110010011 S
b1011000000000010110010011 W"
b110000 P
b110000 ^"
b110000 g"
b1000010 M
b1000010 u
b1000010 ]"
b110000 O
b110000 q
b110000 \"
b110000 b"
b101100 Q
b101100 p
b101100 t
b101100 V"
b101100 h"
b101100 j"
1C
#22000
0C
#23000
b10110 #
1N
1w
b0 J
b0 d"
b0 n"
b0 f"
1E
b0 W
b0 Z
b0 K"
b0 `"
b0 n
b1010 G
b1010 [
b1010 Y"
b1000 U
b1000 s
b1000 U"
b1000 X"
b1010 F
b1010 L"
b1010 Z"
b1010 o"
b101 H
b101 \
b101 p"
b1011 X
b1011 ]
b1011 ""
b1011 #"
b1011 9"
1%"
0K
0V
1~
b1 !"
b1 &"
b1 H"
b10 T
b10 }
b10 I"
b10 O"
b1010011110001000 P"
b1000 m"
b101 l"
b111 k"
b100 x
b100 $"
b1100011 z
b1100011 :"
b10100111100010001100011 S
b10100111100010001100011 W"
b111000 P
b111000 ^"
b111000 g"
b111000 M
b111000 u
b111000 ]"
b110100 O
b110100 q
b110100 \"
b110100 b"
b110000 Q
b110000 p
b110000 t
b110000 V"
b110000 h"
b110000 j"
1C
#24000
0C
#25000
b100001 J
b100001 d"
b100001 n"
b100001 f"
0N
0E
b100001 W
b100001 Z
b100001 K"
b100001 `"
b100001 n
b100001 G
b100001 [
b100001 Y"
0w
b100001 U
b100001 s
b100001 U"
b100001 X"
b0 F
b0 L"
b0 Z"
b0 o"
b0 H
b0 \
b0 p"
b0 X
b0 ]
b0 ""
b0 #"
b0 9"
0%"
1K
1V
0~
b10 !"
b10 &"
b10 H"
b0 T
b0 }
b0 I"
b0 O"
b1000010000000001100 P"
b1100 m"
b1 l"
b0 k"
b0 x
b0 $"
b10011 z
b10011 :"
b10000100000000011000010011 S
b10000100000000011000010011 W"
b111100 P
b111100 ^"
b111100 g"
b1011001 M
b1011001 u
b1011001 ]"
b111100 O
b111100 q
b111100 \"
b111100 b"
b111000 Q
b111000 p
b111000 t
b111000 V"
b111000 h"
b111000 j"
1C
#26000
0C
#27000
b100001 $
1N
1w
b0 J
b0 d"
b0 n"
b0 f"
1E
b0 W
b0 Z
b0 K"
b0 `"
b0 n
b101 G
b101 [
b101 Y"
b1000 U
b1000 s
b1000 U"
b1000 X"
b101 F
b101 L"
b101 Z"
b101 o"
b1010 H
b1010 \
b1010 p"
b1100 X
b1100 ]
b1100 ""
b1100 #"
b1100 9"
1%"
0K
0V
1~
b1 !"
b1 &"
b1 H"
b10 T
b10 }
b10 I"
b10 O"
b1110010110101000 P"
b1000 m"
b111 l"
b101 k"
b101 x
b101 $"
b1100011 z
b1100011 :"
b11100101101010001100011 S
b11100101101010001100011 W"
b1000100 P
b1000100 ^"
b1000100 g"
b1000100 M
b1000100 u
b1000100 ]"
b1000000 O
b1000000 q
b1000000 \"
b1000000 b"
b111100 Q
b111100 p
b111100 t
b111100 V"
b111100 h"
b111100 j"
1C
#28000
0C
#29000
b101100 J
b101100 d"
b101100 n"
b101100 f"
0N
0E
b101100 W
b101100 Z
b101100 K"
b101100 `"
b101100 n
b101100 G
b101100 [
b101100 Y"
0w
b101100 U
b101100 s
b101100 U"
b101100 X"
b100001 F
b100001 L"
b100001 Z"
b100001 o"
b0 H
b0 \
b0 p"
b0 X
b0 ]
b0 ""
b0 #"
b0 9"
0%"
1K
1V
0~
b10 !"
b10 &"
b10 H"
b0 T
b0 }
b0 I"
b0 O"
b1011000000000001101 P"
b1101 m"
b1100 l"
b0 k"
b0 x
b0 $"
b10011 z
b10011 :"
b10110000000000011010010011 S
b10110000000000011010010011 W"
b1001000 P
b1001000 ^"
b1001000 g"
b1110000 M
b1110000 u
b1110000 ]"
b1001000 O
b1001000 q
b1001000 \"
b1001000 b"
b1000100 Q
b1000100 p
b1000100 t
b1000100 V"
b1000100 h"
b1000100 j"
1C
#30000
0C
#31000
b101100 %
1N
1w
b0 J
b0 d"
b0 n"
b0 f"
1E
b0 W
b0 Z
b0 K"
b0 `"
b0 n
b11111111111111111111111111111111 G
b11111111111111111111111111111111 [
b11111111111111111111111111111111 Y"
b1000 U
b1000 s
b1000 U"
b1000 X"
b11111111111111111111111111111111 F
b11111111111111111111111111111111 L"
b11111111111111111111111111111111 Z"
b11111111111111111111111111111111 o"
b1101 X
b1101 ]
b1101 ""
b1101 #"
b1101 9"
1%"
0K
0V
1~
b1 !"
b1 &"
b1 H"
b10 T
b10 }
b10 I"
b10 O"
b111011111011001000 P"
b1000 m"
b11101 l"
b11110 k"
b110 x
b110 $"
b1100011 z
b1100011 :"
b1110111110110010001100011 S
b1110111110110010001100011 W"
b1010000 P
b1010000 ^"
b1010000 g"
b1010000 M
b1010000 u
b1010000 ]"
b1001100 O
b1001100 q
b1001100 \"
b1001100 b"
b1001000 Q
b1001000 p
b1001000 t
b1001000 V"
b1001000 h"
b1001000 j"
1C
#32000
0C
#33000
b110111 J
b110111 d"
b110111 n"
b110111 f"
0N
0E
b110111 W
b110111 Z
b110111 K"
b110111 `"
b110111 n
b110111 G
b110111 [
b110111 Y"
0w
b110111 U
b110111 s
b110111 U"
b110111 X"
b0 F
b0 L"
b0 Z"
b0 o"
b0 X
b0 ]
b0 ""
b0 #"
b0 9"
0%"
1K
1V
0~
b10 !"
b10 &"
b10 H"
b0 T
b0 }
b0 I"
b0 O"
b1101110000000001110 P"
b1110 m"
b10111 l"
b0 k"
b0 x
b0 $"
b10011 z
b10011 :"
b11011100000000011100010011 S
b11011100000000011100010011 W"
b1010100 P
b1010100 ^"
b1010100 g"
b10000111 M
b10000111 u
b10000111 ]"
b1010100 O
b1010100 q
b1010100 \"
b1010100 b"
b1010000 Q
b1010000 p
b1010000 t
b1010000 V"
b1010000 h"
b1010000 j"
1C
#34000
0C
#35000
b110111 &
1N
1w
b0 J
b0 d"
b0 n"
b0 f"
1E
b0 W
b0 Z
b0 K"
b0 `"
b0 n
b0 G
b0 [
b0 Y"
b1000 U
b1000 s
b1000 U"
b1000 X"
b11111111111111111111111111111111 H
b11111111111111111111111111111111 \
b11111111111111111111111111111111 p"
b1110 X
b1110 ]
b1110 ""
b1110 #"
b1110 9"
1%"
0K
0V
1~
b1 !"
b1 &"
b1 H"
b10 T
b10 }
b10 I"
b10 O"
b111101110111101000 P"
b1000 m"
b11110 l"
b11101 k"
b111 x
b111 $"
b1100011 z
b1100011 :"
b1111011101111010001100011 S
b1111011101111010001100011 W"
b1011100 P
b1011100 ^"
b1011100 g"
b1011100 M
b1011100 u
b1011100 ]"
b1011000 O
b1011000 q
b1011000 \"
b1011000 b"
b1010100 Q
b1010100 p
b1010100 t
b1010100 V"
b1010100 h"
b1010100 j"
1C
#36000
0C
#37000
b1000010 J
b1000010 d"
b1000010 n"
b1000010 f"
0N
0E
b1000010 W
b1000010 Z
b1000010 K"
b1000010 `"
b1000010 n
b1000010 G
b1000010 [
b1000010 Y"
0w
b1000010 U
b1000010 s
b1000010 U"
b1000010 X"
b0 H
b0 \
b0 p"
b0 X
b0 ]
b0 ""
b0 #"
b0 9"
0%"
1K
1V
0~
b10 !"
b10 &"
b10 H"
b0 T
b0 }
b0 I"
b0 O"
b10000100000000001111 P"
b1111 m"
b10 l"
b0 k"
b0 x
b0 $"
b10011 z
b10011 :"
b100001000000000011110010011 S
b100001000000000011110010011 W"
b1100000 P
b1100000 ^"
b1100000 g"
b10011110 M
b10011110 u
b10011110 ]"
b1100000 O
b1100000 q
b1100000 \"
b1100000 b"
b1011100 Q
b1011100 p
b1011100 t
b1011100 V"
b1011100 h"
b1011100 j"
1C
#38000
0C
#39000
b1000010 '
1E
b0 W
b0 Z
b0 K"
b0 `"
b0 n
b0 G
b0 [
b0 Y"
1N
b1100100 J
b1100100 d"
b1100100 n"
b1100100 f"
b1000 U
b1000 s
b1000 U"
b1000 X"
1%"
0V
1|
b0 !"
b0 &"
b0 H"
b11 T
b11 }
b11 I"
b11 O"
b10 I
b10 {
b10 J"
b10 c"
b10000000000000001 P"
b1 m"
b1000 l"
b1101111 z
b1101111 :"
b100000000000000011101111 S
b100000000000000011101111 W"
b1101000 P
b1101000 ^"
b1101000 g"
b1101000 M
b1101000 u
b1101000 ]"
b1100100 O
b1100100 q
b1100100 \"
b1100100 b"
b1100000 Q
b1100000 p
b1100000 t
b1100000 V"
b1100000 h"
b1100000 j"
1C
#40000
0C
#41000
b1100100 +
0E
b1001101 W
b1001101 Z
b1001101 K"
b1001101 `"
b1001101 n
b1001101 G
b1001101 [
b1001101 Y"
0N
b1001101 U
b1001101 s
b1001101 U"
b1001101 X"
b101100 F
b101100 L"
b101100 Z"
b101100 o"
0%"
1V
0|
b10 !"
b10 &"
b10 H"
b0 T
b0 }
b0 I"
b0 O"
b0 I
b0 {
b0 J"
b0 c"
b10011010000000001000 P"
b1000 m"
b1101 l"
b10011 z
b10011 :"
b100110100000000010000010011 S
b100110100000000010000010011 W"
b1101100 P
b1101100 ^"
b1101100 g"
b1001101 J
b1001101 d"
b1001101 n"
b1001101 f"
b10110101 M
b10110101 u
b10110101 ]"
b1101100 O
b1101100 q
b1101100 \"
b1101100 b"
b1101000 Q
b1101000 p
b1101000 t
b1101000 V"
b1101000 h"
b1101000 j"
1C
#42000
0C
#43000
b1001101 ,
b0 J
b0 d"
b0 n"
b0 f"
1E
b0 W
b0 Z
b0 K"
b0 `"
b0 n
b0 G
b0 [
b0 Y"
b0 U
b0 s
b0 U"
b0 X"
b0 F
b0 L"
b0 Z"
b0 o"
b0 P"
b0 m"
b0 l"
b10011 S
b10011 W"
b1110000 P
b1110000 ^"
b1110000 g"
b1101100 M
b1101100 u
b1101100 ]"
b1110000 O
b1110000 q
b1110000 \"
b1110000 b"
b1101100 Q
b1101100 p
b1101100 t
b1101100 V"
b1101100 h"
b1101100 j"
1C
#44000
0C
#45000
bx J
bx d"
bx n"
bx f"
xE
bx W
bx Z
bx K"
bx `"
bx n
bx G
bx [
bx Y"
bx U
bx s
bx U"
bx X"
bx F
bx L"
bx Z"
bx o"
bx H
bx \
bx p"
x%"
b0 !"
b0 &"
b0 H"
0V
0K
bx P"
bx m"
bx l"
bx k"
xy
bx x
bx $"
bx z
bx :"
bx S
bx W"
b1110100 P
b1110100 ^"
b1110100 g"
bx M
bx u
bx ]"
b1110100 O
b1110100 q
b1110100 \"
b1110100 b"
b1110000 Q
b1110000 p
b1110000 t
b1110000 V"
b1110000 h"
b1110000 j"
1C
#46000
0C
#47000
b1111000 P
b1111000 ^"
b1111000 g"
b1111000 O
b1111000 q
b1111000 \"
b1111000 b"
b1110100 Q
b1110100 p
b1110100 t
b1110100 V"
b1110100 h"
b1110100 j"
1C
#48000
0C
#49000
b1111100 P
b1111100 ^"
b1111100 g"
b1111100 O
b1111100 q
b1111100 \"
b1111100 b"
b1111000 Q
b1111000 p
b1111000 t
b1111000 V"
b1111000 h"
b1111000 j"
1C
#50000
0C
#51000
b10000000 P
b10000000 ^"
b10000000 g"
b10000000 O
b10000000 q
b10000000 \"
b10000000 b"
b1111100 Q
b1111100 p
b1111100 t
b1111100 V"
b1111100 h"
b1111100 j"
1C
#52000
0C
#53000
b10000100 P
b10000100 ^"
b10000100 g"
b10000100 O
b10000100 q
b10000100 \"
b10000100 b"
b10000000 Q
b10000000 p
b10000000 t
b10000000 V"
b10000000 h"
b10000000 j"
1C
#54000
0C
#55000
b10001000 P
b10001000 ^"
b10001000 g"
b10001000 O
b10001000 q
b10001000 \"
b10001000 b"
b10000100 Q
b10000100 p
b10000100 t
b10000100 V"
b10000100 h"
b10000100 j"
1C
#56000
0C
#57000
b10001100 P
b10001100 ^"
b10001100 g"
b10001100 O
b10001100 q
b10001100 \"
b10001100 b"
b10001000 Q
b10001000 p
b10001000 t
b10001000 V"
b10001000 h"
b10001000 j"
1C
#58000
0C
#59000
b10010000 P
b10010000 ^"
b10010000 g"
b10010000 O
b10010000 q
b10010000 \"
b10010000 b"
b10001100 Q
b10001100 p
b10001100 t
b10001100 V"
b10001100 h"
b10001100 j"
1C
#60000
0C
#61000
b10010100 P
b10010100 ^"
b10010100 g"
b10010100 O
b10010100 q
b10010100 \"
b10010100 b"
b10010000 Q
b10010000 p
b10010000 t
b10010000 V"
b10010000 h"
b10010000 j"
1C
#62000
0C
#63000
b10011000 P
b10011000 ^"
b10011000 g"
b10011000 O
b10011000 q
b10011000 \"
b10011000 b"
b10010100 Q
b10010100 p
b10010100 t
b10010100 V"
b10010100 h"
b10010100 j"
1C
#64000
0C
