RISCV/tb.vcd
$date
	Mon Mar 31 20:26:11 2025
$end
$version
	Icarus Verilog
$end
$timescale
	1ps
$end
$scope module tb $end
$var wire 32 ! X0 [31:0] $end
$var wire 32 " a0 [31:0] $end
$var wire 32 # a1 [31:0] $end
$var wire 32 $ a2 [31:0] $end
$var wire 32 % a3 [31:0] $end
$var wire 32 & a4 [31:0] $end
$var wire 32 ' a5 [31:0] $end
$var wire 32 ( a6 [31:0] $end
$var wire 32 ) a7 [31:0] $end
$var wire 32 * gp [31:0] $end
$var wire 32 + ra [31:0] $end
$var wire 32 , s0 [31:0] $end
$var wire 32 - s1 [31:0] $end
$var wire 32 . s10 [31:0] $end
$var wire 32 / s11 [31:0] $end
$var wire 32 0 s2 [31:0] $end
$var wire 32 1 s3 [31:0] $end
$var wire 32 2 s4 [31:0] $end
$var wire 32 3 s5 [31:0] $end
$var wire 32 4 s6 [31:0] $end
$var wire 32 5 s7 [31:0] $end
$var wire 32 6 s8 [31:0] $end
$var wire 32 7 s9 [31:0] $end
$var wire 32 8 sp [31:0] $end
$var wire 32 9 t0 [31:0] $end
$var wire 32 : t1 [31:0] $end
$var wire 32 ; t2 [31:0] $end
$var wire 32 < t3 [31:0] $end
$var wire 32 = t4 [31:0] $end
$var wire 32 > t5 [31:0] $end
$var wire 32 ? t6 [31:0] $end
$var wire 32 @ tp [31:0] $end
$var reg 1 A clk $end
$var reg 1 B reset $end
$scope module riscv_DUT $end
$var wire 1 C AndOut $end
$var wire 1 D PCSrcE $end
$var wire 32 E SrcAE [31:0] $end
$var wire 32 F WriteDataE [31:0] $end
$var wire 1 A clk $end
$var wire 1 B reset $end
$var wire 1 G ZeroE $end
$var wire 32 H WriteDataM [31:0] $end
$var wire 101 I WriteBackOutData [100:0] $end
$var wire 3 J WriteBackOutControl [2:0] $end
$var wire 101 K WriteBackInData [100:0] $end
$var wire 3 L WriteBackInControl [2:0] $end
$var wire 32 M SrcBE [31:0] $end
$var wire 5 N Rs2E [4:0] $end
$var wire 5 O Rs2D [4:0] $end
$var wire 5 P Rs1E [4:0] $end
$var wire 5 Q Rs1D [4:0] $end
$var wire 32 R ResultW [31:0] $end
$var wire 2 S ResultSrcW [1:0] $end
$var wire 2 T ResultSrcM [1:0] $end
$var wire 2 U ResultSrcE [1:0] $end
$var wire 2 V ResultSrcD [1:0] $end
$var wire 1 W RegWriteW $end
$var wire 1 X RegWriteM $end
$var wire 1 Y RegWriteE $end
$var wire 1 Z RegWriteD $end
$var wire 32 [ ReadDataW [31:0] $end
$var wire 32 \ ReadDataM [31:0] $end
$var wire 5 ] RdW [4:0] $end
$var wire 5 ^ RdM [4:0] $end
$var wire 5 _ RdE [4:0] $end
$var wire 5 ` RdD [4:0] $end
$var wire 32 a RD2E [31:0] $end
$var wire 32 b RD2D [31:0] $end
$var wire 32 c RD1E [31:0] $end
$var wire 32 d RD1D [31:0] $end
$var wire 32 e PCTargetE [31:0] $end
$var wire 32 f PCPlus4W [31:0] $end
$var wire 32 g PCPlus4M [31:0] $end
$var wire 32 h PCPlus4F [31:0] $end
$var wire 32 i PCPlus4E [31:0] $end
$var wire 32 j PCPlus4D [31:0] $end
$var wire 32 k PCFF [31:0] $end
$var wire 32 l PCF [31:0] $end
$var wire 32 m PCE [31:0] $end
$var wire 32 n PCD [31:0] $end
$var wire 101 o MemoryOutData [100:0] $end
$var wire 4 p MemoryOutControl [3:0] $end
$var wire 101 q MemoryInData [100:0] $end
$var wire 4 r MemoryInControl [3:0] $end
$var wire 1 s MemWriteM $end
$var wire 1 t MemWriteE $end
$var wire 1 u MemWriteD $end
$var wire 1 v JumpE $end
$var wire 1 w JumpD $end
$var wire 32 x InstrF [31:0] $end
$var wire 32 y InstrD [31:0] $end
$var wire 2 z ImmSrcD [1:0] $end
$var wire 32 { ImmExtE [31:0] $end
$var wire 32 | ImmExtD [31:0] $end
$var wire 2 } ForwardBE [1:0] $end
$var wire 32 ~ ForwardB [31:0] $end
$var wire 2 !" ForwardAE [1:0] $end
$var wire 32 "" ForwardA [31:0] $end
$var wire 175 #" ExecuteOutData [174:0] $end
$var wire 11 $" ExecuteOutControl [10:0] $end
$var wire 175 %" ExecuteInData [174:0] $end
$var wire 11 &" ExecuteInControl [10:0] $end
$var wire 96 '" DecodeOutData [95:0] $end
$var wire 96 (" DecodeInData [95:0] $end
$var wire 1 )" BranchE $end
$var wire 1 *" BranchD $end
$var wire 1 +" ALUSrcE $end
$var wire 1 ," ALUSrcD $end
$var wire 32 -" ALUResultW [31:0] $end
$var wire 32 ." ALUResultM [31:0] $end
$var wire 32 /" ALUResultE [31:0] $end
$var wire 4 0" ALUCtlE [3:0] $end
$var wire 4 1" ALUCtlD [3:0] $end
$var parameter 32 2" WIDHT $end
$scope module ALU $end
$var wire 4 3" ALUCtl [3:0] $end
$var wire 32 4" ALUResult [31:0] $end
$var wire 32 5" SrcA [31:0] $end
$var wire 1 G Zero $end
$var wire 32 6" SrcB [31:0] $end
$var parameter 32 7" ADD $end
$var parameter 32 8" AND $end
$var parameter 32 9" BGE $end
$var parameter 32 :" BGEU $end
$var parameter 32 ;" BLT $end
$var parameter 32 <" BLTU $end
$var parameter 32 =" BNE $end
$var parameter 32 >" OR $end
$var parameter 32 ?" SLL $end
$var parameter 32 @" SLT $end
$var parameter 32 A" SLTU $end
$var parameter 32 B" SRA $end
$var parameter 32 C" SRL $end
$var parameter 32 D" SUB $end
$var parameter 32 E" WIDTH $end
$var parameter 32 F" XOR $end
$var reg 32 G" temp [31:0] $end
$upscope $end
$scope module Adder_PCPlus4 $end
$var wire 32 H" SrcB [31:0] $end
$var wire 32 I" SrcA [31:0] $end
$var wire 32 J" Result [31:0] $end
$var parameter 32 K" WIDTH $end
$upscope $end
$scope module Adder_PCPlus4E $end
$var wire 32 L" SrcA [31:0] $end
$var wire 32 M" SrcB [31:0] $end
$var wire 32 N" Result [31:0] $end
$var parameter 32 O" WIDTH $end
$upscope $end
$scope module ControlUnit $end
$var wire 3 P" func3 [2:0] $end
$var wire 1 Q" func7_5 $end
$var wire 7 R" opcode [6:0] $end
$var wire 2 S" ResultSrc [1:0] $end
$var wire 1 Z RegWrite $end
$var wire 1 u MemWrite $end
$var wire 1 w Jump $end
$var wire 2 T" ImmSrc [1:0] $end
$var wire 1 *" Branch $end
$var wire 1 ," ALUSrc $end
$var wire 2 U" ALUOp [1:0] $end
$var wire 4 V" ALUCtl [3:0] $end
$scope module ALUDecoder $end
$var wire 3 W" func3 [2:0] $end
$var wire 1 Q" func7_5 $end
$var wire 1 X" opcode_5 $end
$var wire 2 Y" ALUOp [1:0] $end
$var wire 4 Z" ALUCtl [3:0] $end
$var parameter 32 [" ADD $end
$var parameter 32 \" AND $end
$var parameter 32 ]" BGE $end
$var parameter 32 ^" BGEU $end
$var parameter 32 _" BLT $end
$var parameter 32 `" BLTU $end
$var parameter 32 a" BNE $end
$var parameter 32 b" Branch_Type $end
$var parameter 32 c" IR_Type $end
$var parameter 32 d" Load_Store_Type $end
$var parameter 32 e" OR $end
$var parameter 32 f" SLL $end
$var parameter 32 g" SLT $end
$var parameter 32 h" SLTU $end
$var parameter 32 i" SRA $end
$var parameter 32 j" SRL $end
$var parameter 32 k" SUB $end
$var parameter 32 l" XOR $end
$var reg 4 m" temp [3:0] $end
$upscope $end
$scope module MainDecoder $end
$var wire 7 n" opcode [6:0] $end
$var parameter 32 o" B_Type $end
$var parameter 32 p" BranchInst $end
$var parameter 32 q" Branch_Type $end
$var parameter 32 r" IR_Type $end
$var parameter 32 s" I_Type $end
$var parameter 32 t" I_TypeInst $end
$var parameter 32 u" J_Type $end
$var parameter 32 v" J_TypeInst $end
$var parameter 32 w" LoadInst $end
$var parameter 32 x" Load_Store_Type $end
$var parameter 32 y" R_TypeInst $end
$var parameter 32 z" S_Type $end
$var parameter 32 {" StoreInst $end
$var reg 2 |" ALUOp [1:0] $end
$var reg 1 ," ALUSrc $end
$var reg 1 *" Branch $end
$var reg 2 }" ImmSrc [1:0] $end
$var reg 1 w Jump $end
$var reg 1 u MemWrite $end
$var reg 1 Z RegWrite $end
$var reg 2 ~" ResultSrc [1:0] $end
$upscope $end
$upscope $end
$scope module DataMemory $end
$var wire 32 !# A [31:0] $end
$var wire 1 A CLK $end
$var wire 32 "# WD [31:0] $end
$var wire 1 s WE $end
$var wire 32 ## RD [31:0] $end
$var parameter 32 $# Width $end
$upscope $end
$scope module Decode $end
$var wire 1 A clk $end
$var wire 96 %# d [95:0] $end
$var wire 1 B rst $end
$var parameter 32 &# WIDTH $end
$var reg 96 '# q [95:0] $end
$upscope $end
$scope module Execute $end
$var wire 1 A clk $end
$var wire 186 (# d [185:0] $end
$var wire 1 B rst $end
$var parameter 32 )# WIDTH $end
$var reg 186 *# q [185:0] $end
$upscope $end
$scope module FA $end
$var wire 32 +# A [31:0] $end
$var wire 32 ,# C [31:0] $end
$var wire 32 -# Y [31:0] $end
$var wire 2 .# S [1:0] $end
$var wire 32 /# B [31:0] $end
$var parameter 32 0# WIDTH $end
$var reg 32 1# temp [31:0] $end
$upscope $end
$scope module FB $end
$var wire 32 2# A [31:0] $end
$var wire 32 3# C [31:0] $end
$var wire 32 4# Y [31:0] $end
$var wire 2 5# S [1:0] $end
$var wire 32 6# B [31:0] $end
$var parameter 32 7# WIDTH $end
$var reg 32 8# temp [31:0] $end
$upscope $end
$scope module HazardUnit $end
$var wire 5 9# RdM [4:0] $end
$var wire 5 :# RdW [4:0] $end
$var wire 1 X RegWriteM $end
$var wire 1 W RegWriteW $end
$var wire 5 ;# Rs1E [4:0] $end
$var wire 5 <# Rs2E [4:0] $end
$var wire 2 =# ForwardBE [1:0] $end
$var wire 2 ># ForwardAE [1:0] $end
$scope module ForwardingLogic $end
$var wire 2 ?# ForwardAE [1:0] $end
$var wire 2 @# ForwardBE [1:0] $end
$var wire 5 A# RdM [4:0] $end
$var wire 5 B# RdW [4:0] $end
$var wire 1 X RegWriteM $end
$var wire 1 W RegWriteW $end
$var wire 5 C# Rs1E [4:0] $end
$var wire 5 D# Rs2E [4:0] $end
$var reg 2 E# tempA [1:0] $end
$var reg 2 F# tempB [1:0] $end
$upscope $end
$upscope $end
$scope module ImmExtnd $end
$var wire 2 G# InstType [1:0] $end
$var wire 25 H# Instr [31:7] $end
$var parameter 32 I# B_Type $end
$var parameter 32 J# I_Type $end
$var parameter 32 K# J_Type $end
$var parameter 32 L# S_Type $end
$var reg 32 M# ImmExt [31:0] $end
$upscope $end
$scope module InstructionMemory $end
$var wire 32 N# readAddr [31:0] $end
$var wire 32 O# inst [31:0] $end
$var integer 32 P# i [31:0] $end
$upscope $end
$scope module Memory $end
$var wire 1 A clk $end
$var wire 105 Q# d [104:0] $end
$var wire 1 B rst $end
$var parameter 32 R# WIDTH $end
$var reg 105 S# q [104:0] $end
$upscope $end
$scope module Mux2x1_ALUSrc $end
$var wire 32 T# A [31:0] $end
$var wire 32 U# B [31:0] $end
$var wire 1 +" S $end
$var wire 32 V# Y [31:0] $end
$var parameter 32 W# WIDTH $end
$upscope $end
$scope module Mux2x1_PC $end
$var wire 32 X# A [31:0] $end
$var wire 32 Y# B [31:0] $end
$var wire 1 D S $end
$var wire 32 Z# Y [31:0] $end
$var parameter 32 [# WIDTH $end
$upscope $end
$scope module Mux3x1_ResultSrc $end
$var wire 32 \# A [31:0] $end
$var wire 32 ]# B [31:0] $end
$var wire 32 ^# C [31:0] $end
$var wire 2 _# S [1:0] $end
$var wire 32 `# Y [31:0] $end
$var parameter 32 a# WIDTH $end
$var reg 32 b# temp [31:0] $end
$upscope $end
$scope module ProgramCounter $end
$var wire 1 A clk $end
$var wire 32 c# pc_in [31:0] $end
$var wire 1 B reset $end
$var wire 32 d# pc_out [31:0] $end
$var parameter 32 e# WIDTH $end
$var reg 32 f# temp [31:0] $end
$upscope $end
$scope module RegisterFile $end
$var wire 5 g# A1 [4:0] $end
$var wire 5 h# A2 [4:0] $end
$var wire 5 i# A3 [4:0] $end
$var wire 1 j# CLK $end
$var wire 32 k# WD3 [31:0] $end
$var wire 1 W WE3 $end
$var wire 1 B reset $end
$var wire 32 l# RD2 [31:0] $end
$var wire 32 m# RD1 [31:0] $end
$var parameter 32 n# ADDR_WIDTH $end
$var parameter 32 o# DATA_WIDTH $end
$var integer 32 p# i [31:0] $end
$upscope $end
$scope module WriteBack $end
$var wire 1 A clk $end
$var wire 104 q# d [103:0] $end
$var wire 1 B rst $end
$var parameter 32 r# WIDTH $end
$var reg 104 s# q [103:0] $end
$upscope $end
$upscope $end
$upscope $end
$enddefinitions $end
$comment Show the parameter values. $end
$dumpall
b1101000 r#
b100000 o#
b101 n#
b100000 e#
b100000 a#
b100000 [#
b100000 W#
b1101001 R#
b1 L#
b11 K#
b0 J#
b10 I#
b100000 7#
b100000 0#
b10111010 )#
b1100000 &#
b100000 $#
b100011 {"
b1 z"
b110011 y"
b0 x"
b11 w"
b1101111 v"
b11 u"
b10011 t"
b0 s"
b10 r"
b1 q"
b1100011 p"
b10 o"
b101 l"
b1 k"
b110 j"
b111 i"
b100 h"
b11 g"
b10 f"
b1000 e"
b0 d"
b10 c"
b1 b"
b1010 a"
b1101 `"
b1011 _"
b1110 ^"
b1100 ]"
b1001 \"
b0 ["
b100000 O"
b100000 K"
b101 F"
b100000 E"
b1 D"
b110 C"
b111 B"
b100 A"
b11 @"
b10 ?"
b1000 >"
b1010 ="
b1101 <"
b1011 ;"
b1110 :"
b1100 9"
b1001 8"
b0 7"
b100000 2"
$end
#0
$dumpvars
b0 s#
b0xxxxxxxxxxxxxxxxxxxxxxxxxxxxxxxx0000000000000000000000000000000000000 q#
b100000 p#
b0 m#
b0 l#
b0 k#
1j#
b0 i#
b0 h#
b0 g#
bx f#
bx d#
bx c#
b0 b#
b0 `#
b0 _#
b0 ^#
b0 ]#
b0 \#
bx Z#
b0 Y#
bx X#
b0 V#
b0 U#
b0 T#
b0 S#
b0 Q#
b100000000 P#
bx O#
bx N#
b0 M#
b0 H#
b0 G#
b0 F#
b0 E#
b0 D#
b0 C#
b0 B#
b0 A#
b0 @#
b0 ?#
b0 >#
b0 =#
b0 <#
b0 ;#
b0 :#
b0 9#
b0 8#
b0 6#
b0 5#
b0 4#
b0 3#
b0 2#
b0 1#
b0 /#
b0 .#
b0 -#
b0 ,#
b0 +#
b0 *#
b0 (#
b0 '#
bx %#
bx ##
b0 "#
b0 !#
b0 ~"
b0 }"
b0 |"
b0 n"
b0 m"
b0 Z"
b0 Y"
0X"
b0 W"
b0 V"
b0 U"
b0 T"
b0 S"
b0 R"
0Q"
b0 P"
b0 N"
b0 M"
b0 L"
bx J"
bx I"
b100 H"
b0 G"
b0 6"
b0 5"
b0 4"
b0 3"
b0 1"
b0 0"
b0 /"
b0 ."
b0 -"
0,"
0+"
0*"
0)"
bx ("
b0 '"
b0 &"
b0 %"
b0 $"
b0 #"
b0 ""
b0 !"
b0 ~
b0 }
b0 |
b0 {
b0 z
b0 y
bx x
0w
0v
0u
0t
0s
b0 r
b0 q
b0 p
b0 o
b0 n
b0 m
bx l
bx k
b0 j
b0 i
bx h
b0 g
b0 f
b0 e
b0 d
b0 c
b0 b
b0 a
b0 `
b0 _
b0 ^
b0 ]
bx \
b0 [
0Z
0Y
0X
0W
b0 V
b0 U
b0 T
b0 S
b0 R
b0 Q
b0 P
b0 O
b0 N
b0 M
b0 L
b0xxxxxxxxxxxxxxxxxxxxxxxxxxxxxxxx0000000000000000000000000000000000000 K
b0 J
b0 I
b0 H
1G
b0 F
b0 E
0D
0C
1B
0A
b0 @
b0 ?
b0 >
b0 =
b0 <
b0 ;
b0 :
b0 9
b0 8
b0 7
b0 6
b0 5
b0 4
b0 3
b0 2
b0 1
b0 0
b0 /
b0 .
b0 -
b0 ,
b0 +
b0 *
b0 )
b0 (
b0 '
b0 &
b0 %
b0 $
b0 #
b0 "
b0 !
$end
#1000
b1010110100000110000110011 x
b1010110100000110000110011 O#
b100 k
b100 Z#
b100 c#
0j#
b100 h
b100 J"
b100 X#
b10101101000001100001100110000000000000000000000000000000000000000000000000000000000000100 ("
b10101101000001100001100110000000000000000000000000000000000000000000000000000000000000100 %#
b0 l
b0 I"
b0 N#
b0 d#
b0 f#
1A
#2000
b100000 p#
1j#
0A
#3000
0j#
1A
#4000
b100000 p#
1j#
0A
#5000
1X"
b10000000000 &"
1Z
b10 U"
b10 Y"
b10 |"
b11111111111111111111111111111110 d
b11111111111111111111111111111110 m#
b1010 b
b1010 l#
b10101 |
b10101 M#
bx [
bx ]#
b10100 Q
b10101 O
b110011 R"
b110011 n"
b10100 g#
b10101 h#
b101011010000011000 H#
b11000 `
b0xxxxxxxxxxxxxxxxxxxxxxxxxxxxxxxx0000000000000000000000000000000000000 I
b1010110100000110000110011 y
b100000000001111111111111111111111111111111000000000000000000000000000001010000000000000000000000000000000001010010101110000000000000000000000000000001010100000000000000000000000000000100 (#
b1111111111111111111111111111111000000000000000000000000000001010000000000000000000000000000000001010010101110000000000000000000000000000001010100000000000000000000000000000100 %"
b100 j
b0xxxxxxxxxxxxxxxxxxxxxxxxxxxxxxxx0000000000000000000000000000000000000 s#
b10101101000001100001100110000000000000000000000000000000000000000000000000000000000000100 '"
b10101101000001100001100110000000000000000000000000000000000000000000000000000000000000100 '#
b1000001001111000000100100110011 x
b1000001001111000000100100110011 O#
b1000 k
b1000 Z#
b1000 c#
0j#
b1000 h
b1000 J"
b1000 X#
b10000010011110000001001001100110000000000000000000000000000010000000000000000000000000000001000 ("
b10000010011110000001001001100110000000000000000000000000000010000000000000000000000000000001000 %#
b100 l
b100 I"
b100 N#
b100 d#
b100 f#
1A
b111000 ;
b10001 ?
b1100 1
b1010 3
b11111111111111111111111111111110 2
0B
#6000
1j#
0A
#7000
0G
b1000 /"
b1000 4"
b1000 G"
b1010 M
b1010 6"
b1010 V#
b10000000010 &"
b1 1"
b1 V"
b1 Z"
b1 m"
b0 d
b0 m#
b1100 b
b1100 l#
b10000010011 |
b10000010011 M#
b11111111111111111111111111111110 E
b11111111111111111111111111111110 5"
b11111111111111111111111111111110 ""
b11111111111111111111111111111110 -#
b11111111111111111111111111111110 1#
b1010 F
b1010 ~
b1010 4#
b1010 8#
b1010 T#
b11000 Q
b10011 O
1Q"
b11000 g#
b10011 h#
b100000100111100000010010 H#
b10010 `
b11111111111111111111111111111110 c
b11111111111111111111111111111110 +#
b1010 a
b1010 2#
b10100 P
b10100 ;#
b10100 C#
b10101 N
b10101 <#
b10101 D#
b11000 _
b10101 e
b10101 N"
b10101 Y#
b10101 {
b10101 M"
b10101 U#
b1000000000000000000000000000000010101100000000000000000000000000000000100 q
b100 i
b100000000000000000000000000000001000000000000000000000000000000010101100000000000000000000000000000000100 Q#
b1000 r
1Y
b1000001001111000000100100110011 y
b100 n
b100000000100000000000000000000000000000000000000000000000000000000000001100000000000000000000000000000001001100010011100100000000000000000000001000001001100000000000000000000000000001000 (#
b1100000000000000000000000000000001001100010011100100000000000000000000001000001001100000000000000000000000000001000 %"
b1000 j
b1111111111111111111111111111111000000000000000000000000000001010000000000000000000000000000000001010010101110000000000000000000000000000001010100000000000000000000000000000100 #"
b10000000000 $"
b10000010011110000001001001100110000000000000000000000000000010000000000000000000000000000001000 '"
b10000010011110000001001001100110000000000000000000000000000010000000000000000000000000000001000 '#
b100000000001111111111111111111111111111111000000000000000000000000000001010000000000000000000000000000000001010010101110000000000000000000000000000001010100000000000000000000000000000100 *#
b1100011111110110010110011 x
b1100011111110110010110011 O#
b1100 k
b1100 Z#
b1100 c#
0j#
b1100 h
b1100 J"
b1100 X#
b11000111111101100101100110000000000000000000000000000100000000000000000000000000000001100 ("
b11000111111101100101100110000000000000000000000000000100000000000000000000000000000001100 %#
b1000 l
b1000 I"
b1000 N#
b1000 d#
b1000 f#
1A
#8000
1j#
0A
#9000
b1100 M
b1100 6"
b1100 V#
b1000 E
b1000 5"
b1000 ""
b1000 -#
b1000 1#
b1100 F
b1100 ~
b1100 4#
b1100 8#
b1100 T#
b10 !"
b10 .#
b10 >#
b10 ?#
b10 E#
b11111111111111111111111111111100 /"
b11111111111111111111111111111100 4"
b11111111111111111111111111111100 G"
b10000010000 &"
b1000 1"
b1000 V"
b1000 Z"
b1000 m"
b10001 d
b10001 m#
b0 b
b0 l#
b11000 |
b11000 M#
b1000 ."
b1000 !#
b1000 ,#
b1000 3#
b1010 H
b1010 "#
b11000 ^
b11000 9#
b11000 A#
b1000xxxxxxxxxxxxxxxxxxxxxxxxxxxxxxxx1100000000000000000000000000000000100 K
b100 g
b10000000000000000000000000000001000xxxxxxxxxxxxxxxxxxxxxxxxxxxxxxxx1100000000000000000000000000000000100 q#
b100 L
1X
b0 c
b0 +#
b1100 a
b1100 2#
b100 m
b100 L"
b11000 P
b11000 ;#
b11000 C#
b10011 N
b10011 <#
b10011 D#
b10010 _
b10000010111 e
b10000010111 N"
b10000010111 Y#
b10000010011 {
b10000010011 M"
b10000010011 U#
b100011111111111111111111111111111100000000000000000000000000000011001001000000000000000000000000000001000 Q#
b11111111111111111111111111111100000000000000000000000000000011001001000000000000000000000000000001000 q
b1000 i
b1 0"
b1 3"
b11111 Q
b11000 O
b110 P"
b110 W"
0Q"
b11111 g#
b11000 h#
b110001111111011001 H#
b11001 `
b1000000000000000000000000000000010101100000000000000000000000000000000100 o
b1000 p
b1100000000000000000000000000000001001100010011100100000000000000000000001000001001100000000000000000000000000001000 #"
b10000000010 $"
b1100011111110110010110011 y
b1000 n
b100000100000000000000000000000000000001000100000000000000000000000000000000000000000000000000000000000010001111111000110010000000000000000000000000001100000000000000000000000000000001100 (#
b1000100000000000000000000000000000000000000000000000000000000000010001111111000110010000000000000000000000000001100000000000000000000000000000001100 %"
b1100 j
b100000000000000000000000000000001000000000000000000000000000000010101100000000000000000000000000000000100 S#
b100000000100000000000000000000000000000000000000000000000000000000000001100000000000000000000000000000001001100010011100100000000000000000000001000001001100000000000000000000000000001000 *#
b11000111111101100101100110000000000000000000000000000100000000000000000000000000000001100 '"
b11000111111101100101100110000000000000000000000000000100000000000000000000000000000001100 '#
b11111000111101110110011 x
b11111000111101110110011 O#
b10000 k
b10000 Z#
b10000 c#
0j#
b10000 h
b10000 J"
b10000 X#
b111110001111011101100110000000000000000000000000000110000000000000000000000000000010000 ("
b111110001111011101100110000000000000000000000000000110000000000000000000000000000010000 %#
b1100 l
b1100 I"
b1100 N#
b1100 d#
b1100 f#
1A
#10000
1j#
0A
#11000
b1000 M
b1000 6"
b1000 V#
b10000010010 &"
b1001 1"
b1001 V"
b1001 Z"
b1001 m"
b0 d
b0 m#
b111000 b
b111000 l#
b111 |
b111 M#
b11001 /"
b11001 4"
b11001 G"
b0 \
b0 ##
b10001 E
b10001 5"
b10001 ""
b10001 -#
b10001 1#
b1000 F
b1000 ~
b1000 4#
b1000 8#
b1000 T#
b1000 R
b1000 /#
b1000 6#
b1000 `#
b1000 k#
b1000 b#
b1 }
b1 5#
b1 =#
b1 @#
b1 F#
b0 !"
b0 .#
b0 >#
b0 ?#
b0 E#
b11000 Q
b111 O
b111 P"
b111 W"
b11000 g#
b111 h#
b1111100011110111 H#
b10111 `
b10001 c
b10001 +#
b0 a
b0 2#
b1000 m
b1000 L"
b11111 P
b11111 ;#
b11111 C#
b11000 N
b11000 <#
b11000 D#
b11001 _
b100000 e
b100000 N"
b100000 Y#
b11000 {
b11000 M"
b11000 U#
b100000000000000000000000000000011001000000000000000000000000000010001100100000000000000000000000000001100 Q#
b11001000000000000000000000000000010001100100000000000000000000000000001100 q
b1100 i
b1000 0"
b1000 3"
b11111111111111111111111111111100 ."
b11111111111111111111111111111100 !#
b11111111111111111111111111111100 ,#
b11111111111111111111111111111100 3#
b1100 H
b1100 "#
b10010 ^
b10010 9#
b10010 A#
b10011111111111111111111111111111100000000000000000000000000000000001001000000000000000000000000000001000 q#
b11111111111111111111111111111100000000000000000000000000000000001001000000000000000000000000000001000 K
b1000 g
b1000 -"
b1000 \#
b11000 ]
b11000 :#
b11000 B#
b11000 i#
b100 f
b100 ^#
1W
b11111000111101110110011 y
b1100 n
b100000100100000000000000000000000000000000000000000000000000000000000111000000000000000000000000000000011001100000111101110000000000000000000000000000011100000000000000000000000000010000 (#
b111000000000000000000000000000000011001100000111101110000000000000000000000000000011100000000000000000000000000010000 %"
b10000 j
b1000100000000000000000000000000000000000000000000000000000000000010001111111000110010000000000000000000000000001100000000000000000000000000000001100 #"
b10000010000 $"
b11111111111111111111111111111100000000000000000000000000000011001001000000000000000000000000000001000 o
b1000xxxxxxxxxxxxxxxxxxxxxxxxxxxxxxxx1100000000000000000000000000000000100 I
b100 J
b111110001111011101100110000000000000000000000000000110000000000000000000000000000010000 '"
b111110001111011101100110000000000000000000000000000110000000000000000000000000000010000 '#
b100000100000000000000000000000000000001000100000000000000000000000000000000000000000000000000000000000010001111111000110010000000000000000000000000001100000000000000000000000000000001100 *#
b100011111111111111111111111111111100000000000000000000000000000011001001000000000000000000000000000001000 S#
b10000000000000000000000000000001000xxxxxxxxxxxxxxxxxxxxxxxxxxxxxxxx1100000000000000000000000000000000100 s#
b0 x
b0 O#
b10100 k
b10100 Z#
b10100 c#
0j#
b10100 h
b10100 J"
b10100 X#
b1000000000000000000000000000000010100 ("
b1000000000000000000000000000000010100 %#
b10000 l
b10000 I"
b10000 N#
b10000 d#
b10000 f#
1A
#12000
b100000100100000000000000000000000000000100000000000000000000000000000111000000000000000000000000000000011001100000111101110000000000000000000000000000011100000000000000000000000000010000 (#
b100000000000000000000000000000111000000000000000000000000000000011001100000111101110000000000000000000000000000011100000000000000000000000000010000 %"
b1000 d
b1000 m#
b1000 6
1j#
0A
#13000
b111000 M
b111000 6"
b111000 V#
b11111111111111111111111111111100 R
b11111111111111111111111111111100 /#
b11111111111111111111111111111100 6#
b11111111111111111111111111111100 `#
b11111111111111111111111111111100 k#
b11111111111111111111111111111100 b#
bx \
bx ##
b1000 E
b1000 5"
b1000 ""
b1000 -#
b1000 1#
b111000 F
b111000 ~
b111000 4#
b111000 8#
b111000 T#
b0 }
b0 5#
b0 =#
b0 @#
b0 F#
0G
b1000 /"
b1000 4"
b1000 G"
0X"
b0 U"
b0 Y"
b0 |"
0Z
b0 &"
b0 1"
b0 V"
b0 Z"
b0 m"
b0 d
b0 m#
b0 b
b0 l#
b0 |
b0 M#
b11111111111111111111111111111100 -"
b11111111111111111111111111111100 \#
b0 [
b0 ]#
b10010 ]
b10010 :#
b10010 B#
b10010 i#
b1000 f
b1000 ^#
b11001 ."
b11001 !#
b11001 ,#
b11001 3#
b1000 H
b1000 "#
b11001 ^
b11001 9#
b11001 A#
b10000000000000000000000000000011001xxxxxxxxxxxxxxxxxxxxxxxxxxxxxxxx1100100000000000000000000000000001100 q#
b11001xxxxxxxxxxxxxxxxxxxxxxxxxxxxxxxx1100100000000000000000000000000001100 K
b1100 g
b1000 c
b1000 +#
b111000 a
b111000 2#
b1100 m
b1100 L"
b11000 P
b11000 ;#
b11000 C#
b111 N
b111 <#
b111 D#
b10111 _
b10011 e
b10011 N"
b10011 Y#
b111 {
b111 M"
b111 U#
b100000000000000000000000000000001000000000000000000000000000001110001011100000000000000000000000000010000 Q#
b1000000000000000000000000000001110001011100000000000000000000000000010000 q
b10000 i
b1001 0"
b1001 3"
b0 Q
b0 O
b0 R"
b0 n"
b0 P"
b0 W"
b0 g#
b0 h#
b0 H#
b0 `
b11111111111111111111111111111100000000000000000000000000000000001001000000000000000000000000000001000 I
b11001000000000000000000000000000010001100100000000000000000000000000001100 o
b100000000000000000000000000000111000000000000000000000000000000011001100000111101110000000000000000000000000000011100000000000000000000000000010000 #"
b10000010010 $"
b0 y
b10000 n
b100000000000000000000000000000000000000000000000000000000000000000000000000000010100 (#
b100000000000000000000000000000000000000000000000000000000000000000000000000000010100 %"
b10100 j
b10011111111111111111111111111111100000000000000000000000000000000001001000000000000000000000000000001000 s#
b100000000000000000000000000000011001000000000000000000000000000010001100100000000000000000000000000001100 S#
b100000100100000000000000000000000000000100000000000000000000000000000111000000000000000000000000000000011001100000111101110000000000000000000000000000011100000000000000000000000000010000 *#
b1000000000000000000000000000000010100 '"
b1000000000000000000000000000000010100 '#
b11000 k
b11000 Z#
b11000 c#
0j#
b11000 h
b11000 J"
b11000 X#
b1010000000000000000000000000000011000 ("
b1010000000000000000000000000000011000 %#
b10100 l
b10100 I"
b10100 N#
b10100 d#
b10100 f#
1A
#14000
b11111111111111111111111111111100 0
1j#
0A
