RISCV/tb.vcd
$date
	Mon Mar 31 18:51:16 2025
$end
$version
	Icarus Verilog
$end
$timescale
	1ps
$end
$scope module tb $end
$var wire 32 ! X0 [31:0] $end
$var wire 32 " a0 [31:0] $end
$var wire 32 # a1 [31:0] $end
$var wire 32 $ a2 [31:0] $end
$var wire 32 % a3 [31:0] $end
$var wire 32 & a4 [31:0] $end
$var wire 32 ' a5 [31:0] $end
$var wire 32 ( a6 [31:0] $end
$var wire 32 ) a7 [31:0] $end
$var wire 32 * gp [31:0] $end
$var wire 32 + ra [31:0] $end
$var wire 32 , s0 [31:0] $end
$var wire 32 - s1 [31:0] $end
$var wire 32 . s10 [31:0] $end
$var wire 32 / s11 [31:0] $end
$var wire 32 0 s2 [31:0] $end
$var wire 32 1 s3 [31:0] $end
$var wire 32 2 s4 [31:0] $end
$var wire 32 3 s5 [31:0] $end
$var wire 32 4 s6 [31:0] $end
$var wire 32 5 s7 [31:0] $end
$var wire 32 6 s8 [31:0] $end
$var wire 32 7 s9 [31:0] $end
$var wire 32 8 sp [31:0] $end
$var wire 32 9 t0 [31:0] $end
$var wire 32 : t1 [31:0] $end
$var wire 32 ; t2 [31:0] $end
$var wire 32 < t3 [31:0] $end
$var wire 32 = t4 [31:0] $end
$var wire 32 > t5 [31:0] $end
$var wire 32 ? t6 [31:0] $end
$var wire 32 @ tp [31:0] $end
$var reg 1 A clk $end
$var reg 1 B reset $end
$scope module riscv_DUT $end
$var wire 1 C AndOut $end
$var wire 1 D PCSrcE $end
$var wire 32 E SrcAE [31:0] $end
$var wire 32 F WriteDataE [31:0] $end
$var wire 1 A clk $end
$var wire 1 B reset $end
$var wire 1 G ZeroE $end
$var wire 32 H WriteDataM [31:0] $end
$var wire 101 I WriteBackOutData [100:0] $end
$var wire 3 J WriteBackOutControl [2:0] $end
$var wire 101 K WriteBackInData [100:0] $end
$var wire 3 L WriteBackInControl [2:0] $end
$var wire 32 M SrcBE [31:0] $end
$var wire 32 N ResultW [31:0] $end
$var wire 2 O ResultSrcW [1:0] $end
$var wire 2 P ResultSrcM [1:0] $end
$var wire 2 Q ResultSrcE [1:0] $end
$var wire 2 R ResultSrcD [1:0] $end
$var wire 1 S RegWriteW $end
$var wire 1 T RegWriteM $end
$var wire 1 U RegWriteE $end
$var wire 1 V RegWriteD $end
$var wire 32 W ReadDataW [31:0] $end
$var wire 32 X ReadDataM [31:0] $end
$var wire 5 Y RdW [4:0] $end
$var wire 5 Z RdM [4:0] $end
$var wire 5 [ RdE [4:0] $end
$var wire 5 \ RdD [4:0] $end
$var wire 32 ] RD2E [31:0] $end
$var wire 32 ^ RD2D [31:0] $end
$var wire 32 _ RD1E [31:0] $end
$var wire 32 ` RD1D [31:0] $end
$var wire 32 a PCTargetE [31:0] $end
$var wire 32 b PCPlus4W [31:0] $end
$var wire 32 c PCPlus4M [31:0] $end
$var wire 32 d PCPlus4F [31:0] $end
$var wire 32 e PCPlus4E [31:0] $end
$var wire 32 f PCPlus4D [31:0] $end
$var wire 32 g PCFF [31:0] $end
$var wire 32 h PCF [31:0] $end
$var wire 32 i PCE [31:0] $end
$var wire 32 j PCD [31:0] $end
$var wire 101 k MemoryOutData [100:0] $end
$var wire 4 l MemoryOutControl [3:0] $end
$var wire 101 m MemoryInData [100:0] $end
$var wire 4 n MemoryInControl [3:0] $end
$var wire 1 o MemWriteM $end
$var wire 1 p MemWriteE $end
$var wire 1 q MemWriteD $end
$var wire 1 r JumpE $end
$var wire 1 s JumpD $end
$var wire 32 t InstrF [31:0] $end
$var wire 32 u InstrD [31:0] $end
$var wire 2 v ImmSrcD [1:0] $end
$var wire 32 w ImmExtE [31:0] $end
$var wire 32 x ImmExtD [31:0] $end
$var wire 165 y ExecuteOutData [164:0] $end
$var wire 11 z ExecuteOutControl [10:0] $end
$var wire 165 { ExecuteInData [164:0] $end
$var wire 11 | ExecuteInControl [10:0] $end
$var wire 96 } DecodeOutData [95:0] $end
$var wire 96 ~ DecodeInData [95:0] $end
$var wire 1 !" BranchE $end
$var wire 1 "" BranchD $end
$var wire 1 #" ALUSrcE $end
$var wire 1 $" ALUSrcD $end
$var wire 32 %" ALUResultW [31:0] $end
$var wire 32 &" ALUResultM [31:0] $end
$var wire 32 '" ALUResultE [31:0] $end
$var wire 4 (" ALUCtlE [3:0] $end
$var wire 4 )" ALUCtlD [3:0] $end
$var parameter 32 *" WIDHT $end
$scope module ALU $end
$var wire 4 +" ALUCtl [3:0] $end
$var wire 32 ," ALUResult [31:0] $end
$var wire 32 -" SrcA [31:0] $end
$var wire 1 G Zero $end
$var wire 32 ." SrcB [31:0] $end
$var parameter 32 /" ADD $end
$var parameter 32 0" AND $end
$var parameter 32 1" BGE $end
$var parameter 32 2" BGEU $end
$var parameter 32 3" BLT $end
$var parameter 32 4" BLTU $end
$var parameter 32 5" BNE $end
$var parameter 32 6" OR $end
$var parameter 32 7" SLL $end
$var parameter 32 8" SLT $end
$var parameter 32 9" SLTU $end
$var parameter 32 :" SRA $end
$var parameter 32 ;" SRL $end
$var parameter 32 <" SUB $end
$var parameter 32 =" WIDTH $end
$var parameter 32 >" XOR $end
$var reg 32 ?" temp [31:0] $end
$upscope $end
$scope module Adder_PCPlus4 $end
$var wire 32 @" SrcB [31:0] $end
$var wire 32 A" SrcA [31:0] $end
$var wire 32 B" Result [31:0] $end
$var parameter 32 C" WIDTH $end
$upscope $end
$scope module Adder_PCPlus4E $end
$var wire 32 D" SrcA [31:0] $end
$var wire 32 E" SrcB [31:0] $end
$var wire 32 F" Result [31:0] $end
$var parameter 32 G" WIDTH $end
$upscope $end
$scope module ControlUnit $end
$var wire 3 H" func3 [2:0] $end
$var wire 1 I" func7_5 $end
$var wire 7 J" opcode [6:0] $end
$var wire 2 K" ResultSrc [1:0] $end
$var wire 1 V RegWrite $end
$var wire 1 q MemWrite $end
$var wire 1 s Jump $end
$var wire 2 L" ImmSrc [1:0] $end
$var wire 1 "" Branch $end
$var wire 1 $" ALUSrc $end
$var wire 2 M" ALUOp [1:0] $end
$var wire 4 N" ALUCtl [3:0] $end
$scope module ALUDecoder $end
$var wire 3 O" func3 [2:0] $end
$var wire 1 I" func7_5 $end
$var wire 1 P" opcode_5 $end
$var wire 2 Q" ALUOp [1:0] $end
$var wire 4 R" ALUCtl [3:0] $end
$var parameter 32 S" ADD $end
$var parameter 32 T" AND $end
$var parameter 32 U" BGE $end
$var parameter 32 V" BGEU $end
$var parameter 32 W" BLT $end
$var parameter 32 X" BLTU $end
$var parameter 32 Y" BNE $end
$var parameter 32 Z" Branch_Type $end
$var parameter 32 [" IR_Type $end
$var parameter 32 \" Load_Store_Type $end
$var parameter 32 ]" OR $end
$var parameter 32 ^" SLL $end
$var parameter 32 _" SLT $end
$var parameter 32 `" SLTU $end
$var parameter 32 a" SRA $end
$var parameter 32 b" SRL $end
$var parameter 32 c" SUB $end
$var parameter 32 d" XOR $end
$var reg 4 e" temp [3:0] $end
$upscope $end
$scope module MainDecoder $end
$var wire 7 f" opcode [6:0] $end
$var parameter 32 g" B_Type $end
$var parameter 32 h" BranchInst $end
$var parameter 32 i" Branch_Type $end
$var parameter 32 j" IR_Type $end
$var parameter 32 k" I_Type $end
$var parameter 32 l" I_TypeInst $end
$var parameter 32 m" J_Type $end
$var parameter 32 n" J_TypeInst $end
$var parameter 32 o" LoadInst $end
$var parameter 32 p" Load_Store_Type $end
$var parameter 32 q" R_TypeInst $end
$var parameter 32 r" S_Type $end
$var parameter 32 s" StoreInst $end
$var reg 2 t" ALUOp [1:0] $end
$var reg 1 $" ALUSrc $end
$var reg 1 "" Branch $end
$var reg 2 u" ImmSrc [1:0] $end
$var reg 1 s Jump $end
$var reg 1 q MemWrite $end
$var reg 1 V RegWrite $end
$var reg 2 v" ResultSrc [1:0] $end
$upscope $end
$upscope $end
$scope module DataMemory $end
$var wire 32 w" A [31:0] $end
$var wire 1 A CLK $end
$var wire 32 x" WD [31:0] $end
$var wire 1 o WE $end
$var wire 32 y" RD [31:0] $end
$var parameter 32 z" Width $end
$upscope $end
$scope module Decode $end
$var wire 1 A clk $end
$var wire 96 {" d [95:0] $end
$var wire 1 B rst $end
$var parameter 32 |" WIDTH $end
$var reg 96 }" q [95:0] $end
$upscope $end
$scope module Execute $end
$var wire 1 A clk $end
$var wire 176 ~" d [175:0] $end
$var wire 1 B rst $end
$var parameter 32 !# WIDTH $end
$var reg 176 "# q [175:0] $end
$upscope $end
$scope module ImmExtnd $end
$var wire 2 ## InstType [1:0] $end
$var wire 25 $# Instr [31:7] $end
$var parameter 32 %# B_Type $end
$var parameter 32 &# I_Type $end
$var parameter 32 '# J_Type $end
$var parameter 32 (# S_Type $end
$var reg 32 )# ImmExt [31:0] $end
$upscope $end
$scope module InstructionMemory $end
$var wire 32 *# readAddr [31:0] $end
$var wire 32 +# inst [31:0] $end
$var integer 32 ,# i [31:0] $end
$upscope $end
$scope module Memory $end
$var wire 1 A clk $end
$var wire 105 -# d [104:0] $end
$var wire 1 B rst $end
$var parameter 32 .# WIDTH $end
$var reg 105 /# q [104:0] $end
$upscope $end
$scope module Mux2x1_ALUSrc $end
$var wire 32 0# A [31:0] $end
$var wire 32 1# B [31:0] $end
$var wire 1 #" S $end
$var wire 32 2# Y [31:0] $end
$var parameter 32 3# WIDTH $end
$upscope $end
$scope module Mux2x1_PC $end
$var wire 32 4# A [31:0] $end
$var wire 32 5# B [31:0] $end
$var wire 1 D S $end
$var wire 32 6# Y [31:0] $end
$var parameter 32 7# WIDTH $end
$upscope $end
$scope module Mux3x1_ResultSrc $end
$var wire 32 8# A [31:0] $end
$var wire 32 9# B [31:0] $end
$var wire 32 :# C [31:0] $end
$var wire 2 ;# S [1:0] $end
$var wire 32 <# Y [31:0] $end
$var parameter 32 =# WIDTH $end
$var reg 32 ># temp [31:0] $end
$upscope $end
$scope module ProgramCounter $end
$var wire 1 A clk $end
$var wire 32 ?# pc_in [31:0] $end
$var wire 1 B reset $end
$var wire 32 @# pc_out [31:0] $end
$var parameter 32 A# WIDTH $end
$var reg 32 B# temp [31:0] $end
$upscope $end
$scope module RegisterFile $end
$var wire 5 C# A1 [4:0] $end
$var wire 5 D# A2 [4:0] $end
$var wire 5 E# A3 [4:0] $end
$var wire 1 F# CLK $end
$var wire 32 G# WD3 [31:0] $end
$var wire 1 S WE3 $end
$var wire 1 B reset $end
$var wire 32 H# RD2 [31:0] $end
$var wire 32 I# RD1 [31:0] $end
$var parameter 32 J# ADDR_WIDTH $end
$var parameter 32 K# DATA_WIDTH $end
$var integer 32 L# i [31:0] $end
$upscope $end
$scope module WriteBack $end
$var wire 1 A clk $end
$var wire 104 M# d [103:0] $end
$var wire 1 B rst $end
$var parameter 32 N# WIDTH $end
$var reg 104 O# q [103:0] $end
$upscope $end
$upscope $end
$upscope $end
$enddefinitions $end
$comment Show the parameter values. $end
$dumpall
b1101000 N#
b100000 K#
b101 J#
b100000 A#
b100000 =#
b100000 7#
b100000 3#
b1101001 .#
b1 (#
b11 '#
b0 &#
b10 %#
b10110000 !#
b1100000 |"
b100000 z"
b100011 s"
b1 r"
b110011 q"
b0 p"
b11 o"
b1101111 n"
b11 m"
b10011 l"
b0 k"
b10 j"
b1 i"
b1100011 h"
b10 g"
b101 d"
b1 c"
b110 b"
b111 a"
b100 `"
b11 _"
b10 ^"
b1000 ]"
b0 \"
b10 ["
b1 Z"
b1010 Y"
b1101 X"
b1011 W"
b1110 V"
b1100 U"
b1001 T"
b0 S"
b100000 G"
b100000 C"
b101 >"
b100000 ="
b1 <"
b110 ;"
b111 :"
b100 9"
b11 8"
b10 7"
b1000 6"
b1010 5"
b1101 4"
b1011 3"
b1110 2"
b1100 1"
b1001 0"
b0 /"
b100000 *"
$end
#0
$dumpvars
b0 O#
b0xxxxxxxxxxxxxxxxxxxxxxxxxxxxxxxx0000000000000000000000000000000000000 M#
b100000 L#
b0 I#
b0 H#
b0 G#
1F#
b0 E#
b0 D#
b0 C#
bx B#
bx @#
bx ?#
b0 >#
b0 <#
b0 ;#
b0 :#
b0 9#
b0 8#
bx 6#
b0 5#
bx 4#
b0 2#
b0 1#
b0 0#
b0 /#
b0 -#
b100000000 ,#
bx +#
bx *#
b0 )#
b0 $#
b0 ##
b0 "#
b0 ~"
b0 }"
bx {"
bx y"
b0 x"
b0 w"
b0 v"
b0 u"
b0 t"
b0 f"
b0 e"
b0 R"
b0 Q"
0P"
b0 O"
b0 N"
b0 M"
b0 L"
b0 K"
b0 J"
0I"
b0 H"
b0 F"
b0 E"
b0 D"
bx B"
bx A"
b100 @"
b0 ?"
b0 ."
b0 -"
b0 ,"
b0 +"
b0 )"
b0 ("
b0 '"
b0 &"
b0 %"
0$"
0#"
0""
0!"
bx ~
b0 }
b0 |
b0 {
b0 z
b0 y
b0 x
b0 w
b0 v
b0 u
bx t
0s
0r
0q
0p
0o
b0 n
b0 m
b0 l
b0 k
b0 j
b0 i
bx h
bx g
b0 f
b0 e
bx d
b0 c
b0 b
b0 a
b0 `
b0 _
b0 ^
b0 ]
b0 \
b0 [
b0 Z
b0 Y
bx X
b0 W
0V
0U
0T
0S
b0 R
b0 Q
b0 P
b0 O
b0 N
b0 M
b0 L
b0xxxxxxxxxxxxxxxxxxxxxxxxxxxxxxxx0000000000000000000000000000000000000 K
b0 J
b0 I
b0 H
1G
b0 F
b0 E
0D
0C
1B
0A
b0 @
b0 ?
b0 >
b0 =
b0 <
b0 ;
b0 :
b0 9
b0 8
b0 7
b0 6
b0 5
b0 4
b0 3
b0 2
b0 1
b0 0
b0 /
b0 .
b0 -
b0 ,
b0 +
b0 *
b0 )
b0 (
b0 '
b0 &
b0 %
b0 $
b0 #
b0 "
b0 !
$end
#1000
b100000000010000010011 t
b100000000010000010011 +#
b100 g
b100 6#
b100 ?#
0F#
b100 d
b100 B"
b100 4#
b1000000000100000100110000000000000000000000000000000000000000000000000000000000000100 ~
b1000000000100000100110000000000000000000000000000000000000000000000000000000000000100 {"
b0 h
b0 A"
b0 *#
b0 @#
b0 B#
1A
#2000
b100000 L#
1F#
0A
#3000
0F#
1A
#4000
b100000 L#
1F#
0A
#5000
1V
b10000000001 |
1$"
b10 M"
b10 Q"
b10 t"
b1 x
b1 )#
bx W
bx 9#
b10011 J"
b10011 f"
b1 D#
b10000000001000 $#
b1000 \
b0xxxxxxxxxxxxxxxxxxxxxxxxxxxxxxxx0000000000000000000000000000000000000 I
b100000000010000010011 u
b10000000001000000000000000000000000000000000000000000000000000000000000000000000000000000000000000000000000010000000000000000000000000000000000100000000000000000000000000000100 ~"
b10000000000000000000000000000000000100000000000000000000000000000100 {
b100 f
b0xxxxxxxxxxxxxxxxxxxxxxxxxxxxxxxx0000000000000000000000000000000000000 O#
b1000000000100000100110000000000000000000000000000000000000000000000000000000000000100 }
b1000000000100000100110000000000000000000000000000000000000000000000000000000000000100 }"
b101000000000010100010011 t
b101000000000010100010011 +#
b1000 g
b1000 6#
b1000 ?#
0F#
b1000 d
b1000 B"
b1000 4#
b1010000000000101000100110000000000000000000000000000010000000000000000000000000000001000 ~
b1010000000000101000100110000000000000000000000000000010000000000000000000000000000001000 {"
b100 h
b100 A"
b100 *#
b100 @#
b100 B#
1A
0B
#6000
1F#
0A
#7000
0G
b1 '"
b1 ,"
b1 ?"
b1010 x
b1010 )#
b1 M
b1 ."
b1 2#
b1010 D#
b10100000000001010 $#
b1010 \
b1000 [
b1 a
b1 F"
b1 5#
b1 w
b1 E"
b1 1#
b1000000000000000000000000000000000100000000000000000000000000000000100 m
b100 e
b100000000000000000000000000000000001000000000000000000000000000000000100000000000000000000000000000000100 -#
b1000 n
1U
1#"
b101000000000010100010011 u
b100 j
b10000000001000000000000000000000000000000000000000000000000000000000000000000000000000000000000000000000100010100000000000000000000000000000101000000000000000000000000000001000 ~"
b100010100000000000000000000000000000101000000000000000000000000000001000 {
b1000 f
b10000000000000000000000000000000000100000000000000000000000000000100 y
b10000000001 z
b1010000000000101000100110000000000000000000000000000010000000000000000000000000000001000 }
b1010000000000101000100110000000000000000000000000000010000000000000000000000000000001000 }"
b10000000001000000000000000000000000000000000000000000000000000000000000000000000000000000000000000000000000010000000000000000000000000000000000100000000000000000000000000000100 "#
b10000000000010110010011 t
b10000000000010110010011 +#
b1100 g
b1100 6#
b1100 ?#
0F#
b1100 d
b1100 B"
b1100 4#
b100000000000101100100110000000000000000000000000000100000000000000000000000000000001100 ~
b100000000000101100100110000000000000000000000000000100000000000000000000000000000001100 {"
b1000 h
b1000 A"
b1000 *#
b1000 @#
b1000 B#
1A
#8000
1F#
0A
#9000
b1010 '"
b1010 ,"
b1010 ?"
b1010 M
b1010 ."
b1010 2#
b100 x
b100 )#
b1 &"
b1 w"
b1000 Z
b1xxxxxxxxxxxxxxxxxxxxxxxxxxxxxxxx0100000000000000000000000000000000100 K
b100 c
b10000000000000000000000000000000001xxxxxxxxxxxxxxxxxxxxxxxxxxxxxxxx0100000000000000000000000000000000100 M#
b100 L
1T
b100 i
b100 D"
b1010 [
b1110 a
b1110 F"
b1110 5#
b1010 w
b1010 E"
b1010 1#
b100000000000000000000000000000001010000000000000000000000000000000000101000000000000000000000000000001000 -#
b1010000000000000000000000000000000000101000000000000000000000000000001000 m
b1000 e
b100 D#
b1000000000001011 $#
b1011 \
b1000000000000000000000000000000000100000000000000000000000000000000100 k
b1000 l
b100010100000000000000000000000000000101000000000000000000000000000001000 y
b10000000000010110010011 u
b1000 j
b10000000001000000000000000000000000000000000000000000000000000000000000000000000000000000000000000000001000010110000000000000000000000000000010000000000000000000000000000001100 ~"
b1000010110000000000000000000000000000010000000000000000000000000000001100 {
b1100 f
b100000000000000000000000000000000001000000000000000000000000000000000100000000000000000000000000000000100 /#
b10000000001000000000000000000000000000000000000000000000000000000000000000000000000000000000000000000000100010100000000000000000000000000000101000000000000000000000000000001000 "#
b100000000000101100100110000000000000000000000000000100000000000000000000000000000001100 }
b100000000000101100100110000000000000000000000000000100000000000000000000000000000001100 }"
b11111111111000000000011010010011 t
b11111111111000000000011010010011 +#
b10000 g
b10000 6#
b10000 ?#
0F#
b10000 d
b10000 B"
b10000 4#
b111111111110000000000110100100110000000000000000000000000000110000000000000000000000000000010000 ~
b111111111110000000000110100100110000000000000000000000000000110000000000000000000000000000010000 {"
b1100 h
b1100 A"
b1100 *#
b1100 @#
b1100 B#
1A
#10000
1F#
0A
#11000
b100 '"
b100 ,"
b100 ?"
b11111111111111111111111111111110 x
b11111111111111111111111111111110 )#
b100 M
b100 ."
b100 2#
b1 N
b1 <#
b1 G#
b1 >#
1I"
b11110 D#
b1111111111100000000001101 $#
b1101 \
b1000 i
b1000 D"
b1011 [
b1100 a
b1100 F"
b1100 5#
b100 w
b100 E"
b100 1#
b100000000000000000000000000000000100000000000000000000000000000000000101100000000000000000000000000001100 -#
b100000000000000000000000000000000000101100000000000000000000000000001100 m
b1100 e
b1010 &"
b1010 w"
b1010 Z
b10000000000000000000000000000001010xxxxxxxxxxxxxxxxxxxxxxxxxxxxxxxx0101000000000000000000000000000001000 M#
b1010xxxxxxxxxxxxxxxxxxxxxxxxxxxxxxxx0101000000000000000000000000000001000 K
b1000 c
b1 %"
b1 8#
b1000 Y
b1000 E#
b100 b
b100 :#
1S
b11111111111000000000011010010011 u
b1100 j
b10000000001000000000000000000000000000000000000000000000000000000000000000000000000000000000000000000001100011011111111111111111111111111111111000000000000000000000000000010000 ~"
b1100011011111111111111111111111111111111000000000000000000000000000010000 {
b10000 f
b1000010110000000000000000000000000000010000000000000000000000000000001100 y
b1010000000000000000000000000000000000101000000000000000000000000000001000 k
b1xxxxxxxxxxxxxxxxxxxxxxxxxxxxxxxx0100000000000000000000000000000000100 I
b100 J
b111111111110000000000110100100110000000000000000000000000000110000000000000000000000000000010000 }
b111111111110000000000110100100110000000000000000000000000000110000000000000000000000000000010000 }"
b10000000001000000000000000000000000000000000000000000000000000000000000000000000000000000000000000000001000010110000000000000000000000000000010000000000000000000000000000001100 "#
b100000000000000000000000000000001010000000000000000000000000000000000101000000000000000000000000000001000 /#
b10000000000000000000000000000000001xxxxxxxxxxxxxxxxxxxxxxxxxxxxxxxx0100000000000000000000000000000000100 O#
b110100000000011100010011 t
b110100000000011100010011 +#
b10100 g
b10100 6#
b10100 ?#
0F#
b10100 d
b10100 B"
b10100 4#
b1101000000000111000100110000000000000000000000000001000000000000000000000000000000010100 ~
b1101000000000111000100110000000000000000000000000001000000000000000000000000000000010100 {"
b10000 h
b10000 A"
b10000 *#
b10000 @#
b10000 B#
1A
#12000
b1 ,
1F#
0A
#13000
b11111111111111111111111111111110 '"
b11111111111111111111111111111110 ,"
b11111111111111111111111111111110 ?"
b1010 N
b1010 <#
b1010 G#
b1010 >#
b11111111111111111111111111111110 M
b11111111111111111111111111111110 ."
b11111111111111111111111111111110 2#
b1101 x
b1101 )#
b1010 %"
b1010 8#
b1010 Y
b1010 E#
b1000 b
b1000 :#
b100 &"
b100 w"
b1011 Z
b10000000000000000000000000000000100xxxxxxxxxxxxxxxxxxxxxxxxxxxxxxxx0101100000000000000000000000000001100 M#
b100xxxxxxxxxxxxxxxxxxxxxxxxxxxxxxxx0101100000000000000000000000000001100 K
b1100 c
b1100 i
b1100 D"
b1101 [
b1010 a
b1010 F"
b1010 5#
b11111111111111111111111111111110 w
b11111111111111111111111111111110 E"
b11111111111111111111111111111110 1#
b100011111111111111111111111111111110000000000000000000000000000000000110100000000000000000000000000010000 -#
b11111111111111111111111111111110000000000000000000000000000000000110100000000000000000000000000010000 m
b10000 e
0I"
b1101 D#
b11010000000001110 $#
b1110 \
b1010xxxxxxxxxxxxxxxxxxxxxxxxxxxxxxxx0101000000000000000000000000000001000 I
b100000000000000000000000000000000000101100000000000000000000000000001100 k
b1100011011111111111111111111111111111111000000000000000000000000000010000 y
b110100000000011100010011 u
b10000 j
b10000000001000000000000000000000000000000000000000000000000000000000000000000000000000000000000000000010000011100000000000000000000000000000110100000000000000000000000000010100 ~"
b10000011100000000000000000000000000000110100000000000000000000000000010100 {
b10100 f
b10000000000000000000000000000001010xxxxxxxxxxxxxxxxxxxxxxxxxxxxxxxx0101000000000000000000000000000001000 O#
b100000000000000000000000000000000100000000000000000000000000000000000101100000000000000000000000000001100 /#
b10000000001000000000000000000000000000000000000000000000000000000000000000000000000000000000000000000001100011011111111111111111111111111111111000000000000000000000000000010000 "#
b1101000000000111000100110000000000000000000000000001000000000000000000000000000000010100 }
b1101000000000111000100110000000000000000000000000001000000000000000000000000000000010100 }"
b11111111000100000000011110010011 t
b11111111000100000000011110010011 +#
b11000 g
b11000 6#
b11000 ?#
0F#
b11000 d
b11000 B"
b11000 4#
b111111110001000000000111100100110000000000000000000000000001010000000000000000000000000000011000 ~
b111111110001000000000111100100110000000000000000000000000001010000000000000000000000000000011000 {"
b10100 h
b10100 A"
b10100 *#
b10100 @#
b10100 B#
1A
#14000
b1010 "
1F#
0A
#15000
b1101 '"
b1101 ,"
b1101 ?"
b11111111111111111111111111110001 x
b11111111111111111111111111110001 )#
b1101 M
b1101 ."
b1101 2#
b0 X
b0 y"
b100 N
b100 <#
b100 G#
b100 >#
1I"
b10001 D#
b1111111100010000000001111 $#
b1111 \
b10000 i
b10000 D"
b1110 [
b11101 a
b11101 F"
b11101 5#
b1101 w
b1101 E"
b1101 1#
b100000000000000000000000000000001101000000000000000000000000000000000111000000000000000000000000000010100 -#
b1101000000000000000000000000000000000111000000000000000000000000000010100 m
b10100 e
b11111111111111111111111111111110 &"
b11111111111111111111111111111110 w"
b1101 Z
b10011111111111111111111111111111110000000000000000000000000000000000110100000000000000000000000000010000 M#
b11111111111111111111111111111110000000000000000000000000000000000110100000000000000000000000000010000 K
b10000 c
b100 %"
b100 8#
b1011 Y
b1011 E#
b1100 b
b1100 :#
b11111111000100000000011110010011 u
b10100 j
b10000000001000000000000000000000000000000000000000000000000000000000000000000000000000000000000000000010100011111111111111111111111111111111000100000000000000000000000000011000 ~"
b10100011111111111111111111111111111111000100000000000000000000000000011000 {
b11000 f
b10000011100000000000000000000000000000110100000000000000000000000000010100 y
b11111111111111111111111111111110000000000000000000000000000000000110100000000000000000000000000010000 k
b100xxxxxxxxxxxxxxxxxxxxxxxxxxxxxxxx0101100000000000000000000000000001100 I
b111111110001000000000111100100110000000000000000000000000001010000000000000000000000000000011000 }
b111111110001000000000111100100110000000000000000000000000001010000000000000000000000000000011000 }"
b10000000001000000000000000000000000000000000000000000000000000000000000000000000000000000000000000000010000011100000000000000000000000000000110100000000000000000000000000010100 "#
b100011111111111111111111111111111110000000000000000000000000000000000110100000000000000000000000000010000 /#
b10000000000000000000000000000000100xxxxxxxxxxxxxxxxxxxxxxxxxxxxxxxx0101100000000000000000000000000001100 O#
b101001000000010010110011 t
b101001000000010010110011 +#
b11100 g
b11100 6#
b11100 ?#
0F#
b11100 d
b11100 B"
b11100 4#
b1010010000000100101100110000000000000000000000000001100000000000000000000000000000011100 ~
b1010010000000100101100110000000000000000000000000001100000000000000000000000000000011100 {"
b11000 h
b11000 A"
b11000 *#
b11000 @#
b11000 B#
1A
#16000
b100 #
1F#
0A
#17000
b11111111111111111111111111110001 '"
b11111111111111111111111111110001 ,"
b11111111111111111111111111110001 ?"
b11111111111111111111111111111110 N
b11111111111111111111111111111110 <#
b11111111111111111111111111111110 G#
b11111111111111111111111111111110 >#
bx X
bx y"
b11111111111111111111111111110001 M
b11111111111111111111111111110001 ."
b11111111111111111111111111110001 2#
1P"
b10000000000 |
0$"
b1 `
b1 I#
b1010 ^
b1010 H#
b1010 x
b1010 )#
b11111111111111111111111111111110 %"
b11111111111111111111111111111110 8#
b0 W
b0 9#
b1101 Y
b1101 E#
b10000 b
b10000 :#
b1101 &"
b1101 w"
b1110 Z
b10000000000000000000000000000001101xxxxxxxxxxxxxxxxxxxxxxxxxxxxxxxx0111000000000000000000000000000010100 M#
b1101xxxxxxxxxxxxxxxxxxxxxxxxxxxxxxxx0111000000000000000000000000000010100 K
b10100 c
b10100 i
b10100 D"
b1111 [
b101 a
b101 F"
b101 5#
b11111111111111111111111111110001 w
b11111111111111111111111111110001 E"
b11111111111111111111111111110001 1#
b100011111111111111111111111111110001000000000000000000000000000000000111100000000000000000000000000011000 -#
b11111111111111111111111111110001000000000000000000000000000000000111100000000000000000000000000011000 m
b11000 e
b110011 J"
b110011 f"
0I"
b1000 C#
b1010 D#
b10100100000001001 $#
b1001 \
b11111111111111111111111111111110000000000000000000000000000000000110100000000000000000000000000010000 I
b1101000000000000000000000000000000000111000000000000000000000000000010100 k
b10100011111111111111111111111111111111000100000000000000000000000000011000 y
b101001000000010010110011 u
b11000 j
b10000000000000000000000000000000000000000010000000000000000000000000000101000000000000000000000000000011000010010000000000000000000000000000101000000000000000000000000000011100 ~"
b10000000000000000000000000000101000000000000000000000000000011000010010000000000000000000000000000101000000000000000000000000000011100 {
b11100 f
b10011111111111111111111111111111110000000000000000000000000000000000110100000000000000000000000000010000 O#
b100000000000000000000000000000001101000000000000000000000000000000000111000000000000000000000000000010100 /#
b10000000001000000000000000000000000000000000000000000000000000000000000000000000000000000000000000000010100011111111111111111111111111111111000100000000000000000000000000011000 "#
b1010010000000100101100110000000000000000000000000001100000000000000000000000000000011100 }
b1010010000000100101100110000000000000000000000000001100000000000000000000000000000011100 }"
b1000000110101011000100100110011 t
b1000000110101011000100100110011 +#
b100000 g
b100000 6#
b100000 ?#
0F#
b100000 d
b100000 B"
b100000 4#
b10000001101010110001001001100110000000000000000000000000001110000000000000000000000000000100000 ~
b10000001101010110001001001100110000000000000000000000000001110000000000000000000000000000100000 {"
b11100 h
b11100 A"
b11100 *#
b11100 @#
b11100 B#
1A
#18000
b11111111111111111111111111111110 %
1F#
0A
