RISCV/tb.vcd
$date
	Mon Mar 31 18:18:53 2025
$end
$version
	Icarus Verilog
$end
$timescale
	1ps
$end
$scope module tb $end
$var wire 32 ! X0 [31:0] $end
$var wire 32 " a0 [31:0] $end
$var wire 32 # a1 [31:0] $end
$var wire 32 $ a2 [31:0] $end
$var wire 32 % a3 [31:0] $end
$var wire 32 & a4 [31:0] $end
$var wire 32 ' a5 [31:0] $end
$var wire 32 ( a6 [31:0] $end
$var wire 32 ) a7 [31:0] $end
$var wire 32 * gp [31:0] $end
$var wire 32 + ra [31:0] $end
$var wire 32 , s0 [31:0] $end
$var wire 32 - s1 [31:0] $end
$var wire 32 . s10 [31:0] $end
$var wire 32 / s11 [31:0] $end
$var wire 32 0 s2 [31:0] $end
$var wire 32 1 s3 [31:0] $end
$var wire 32 2 s4 [31:0] $end
$var wire 32 3 s5 [31:0] $end
$var wire 32 4 s6 [31:0] $end
$var wire 32 5 s7 [31:0] $end
$var wire 32 6 s8 [31:0] $end
$var wire 32 7 s9 [31:0] $end
$var wire 32 8 sp [31:0] $end
$var wire 32 9 t0 [31:0] $end
$var wire 32 : t1 [31:0] $end
$var wire 32 ; t2 [31:0] $end
$var wire 32 < t3 [31:0] $end
$var wire 32 = t4 [31:0] $end
$var wire 32 > t5 [31:0] $end
$var wire 32 ? t6 [31:0] $end
$var wire 32 @ tp [31:0] $end
$var reg 1 A clk $end
$var reg 1 B reset $end
$scope module riscv_DUT $end
$var wire 1 C AndOut $end
$var wire 1 D PCSrcE $end
$var wire 32 E SrcAE [31:0] $end
$var wire 32 F WriteDataE [31:0] $end
$var wire 1 A clk $end
$var wire 1 B reset $end
$var wire 1 G ZeroE $end
$var wire 32 H WriteDataM [31:0] $end
$var wire 32 I SrcBE [31:0] $end
$var wire 32 J ResultW [31:0] $end
$var wire 2 K ResultSrcW [1:0] $end
$var wire 2 L ResultSrcM [1:0] $end
$var wire 2 M ResultSrcE [1:0] $end
$var wire 2 N ResultSrcD [1:0] $end
$var wire 1 O RegWriteW $end
$var wire 1 P RegWriteM $end
$var wire 1 Q RegWriteE $end
$var wire 1 R RegWriteD $end
$var wire 32 S ReadDataW [31:0] $end
$var wire 32 T ReadDataM [31:0] $end
$var wire 5 U RdW [4:0] $end
$var wire 5 V RdM [4:0] $end
$var wire 5 W RdE [4:0] $end
$var wire 5 X RdD [4:0] $end
$var wire 32 Y RD2E [31:0] $end
$var wire 32 Z RD2D [31:0] $end
$var wire 32 [ RD1E [31:0] $end
$var wire 32 \ RD1D [31:0] $end
$var wire 32 ] PCTargetE [31:0] $end
$var wire 32 ^ PCPlus4W [31:0] $end
$var wire 32 _ PCPlus4M [31:0] $end
$var wire 32 ` PCPlus4F [31:0] $end
$var wire 32 a PCPlus4E [31:0] $end
$var wire 32 b PCPlus4D [31:0] $end
$var wire 32 c PCFF [31:0] $end
$var wire 32 d PCF [31:0] $end
$var wire 32 e PCE [31:0] $end
$var wire 32 f PCD [31:0] $end
$var wire 1 g MemWriteM $end
$var wire 1 h MemWriteE $end
$var wire 1 i MemWriteD $end
$var wire 1 j JumpE $end
$var wire 1 k JumpD $end
$var wire 32 l InstrF [31:0] $end
$var wire 32 m InstrD [31:0] $end
$var wire 2 n ImmSrcD [1:0] $end
$var wire 32 o ImmExtE [31:0] $end
$var wire 32 p ImmExtD [31:0] $end
$var wire 1 q BranchE $end
$var wire 1 r BranchD $end
$var wire 1 s ALUSrcE $end
$var wire 1 t ALUSrcD $end
$var wire 32 u ALUResultW [31:0] $end
$var wire 32 v ALUResultM [31:0] $end
$var wire 32 w ALUResultE [31:0] $end
$var wire 4 x ALUCtlE [3:0] $end
$var wire 4 y ALUCtlD [3:0] $end
$var parameter 32 z WIDHT $end
$scope module ALU $end
$var wire 4 { ALUCtl [3:0] $end
$var wire 32 | ALUResult [31:0] $end
$var wire 32 } SrcA [31:0] $end
$var wire 1 G Zero $end
$var wire 32 ~ SrcB [31:0] $end
$var parameter 32 !" ADD $end
$var parameter 32 "" AND $end
$var parameter 32 #" BGE $end
$var parameter 32 $" BGEU $end
$var parameter 32 %" BLT $end
$var parameter 32 &" BLTU $end
$var parameter 32 '" BNE $end
$var parameter 32 (" OR $end
$var parameter 32 )" SLL $end
$var parameter 32 *" SLT $end
$var parameter 32 +" SLTU $end
$var parameter 32 ," SRA $end
$var parameter 32 -" SRL $end
$var parameter 32 ." SUB $end
$var parameter 32 /" WIDTH $end
$var parameter 32 0" XOR $end
$var reg 32 1" temp [31:0] $end
$upscope $end
$scope module Adder_PCPlus4 $end
$var wire 32 2" SrcB [31:0] $end
$var wire 32 3" SrcA [31:0] $end
$var wire 32 4" Result [31:0] $end
$var parameter 32 5" WIDTH $end
$upscope $end
$scope module Adder_PCPlus4E $end
$var wire 32 6" SrcA [31:0] $end
$var wire 32 7" SrcB [31:0] $end
$var wire 32 8" Result [31:0] $end
$var parameter 32 9" WIDTH $end
$upscope $end
$scope module ControlUnit $end
$var wire 3 :" func3 [2:0] $end
$var wire 1 ;" func7_5 $end
$var wire 7 <" opcode [6:0] $end
$var wire 2 =" ResultSrc [1:0] $end
$var wire 1 R RegWrite $end
$var wire 1 i MemWrite $end
$var wire 1 k Jump $end
$var wire 2 >" ImmSrc [1:0] $end
$var wire 1 r Branch $end
$var wire 1 t ALUSrc $end
$var wire 2 ?" ALUOp [1:0] $end
$var wire 4 @" ALUCtl [3:0] $end
$scope module ALUDecoder $end
$var wire 3 A" func3 [2:0] $end
$var wire 1 ;" func7_5 $end
$var wire 1 B" opcode_5 $end
$var wire 2 C" ALUOp [1:0] $end
$var wire 4 D" ALUCtl [3:0] $end
$var parameter 32 E" ADD $end
$var parameter 32 F" AND $end
$var parameter 32 G" BGE $end
$var parameter 32 H" BGEU $end
$var parameter 32 I" BLT $end
$var parameter 32 J" BLTU $end
$var parameter 32 K" BNE $end
$var parameter 32 L" Branch_Type $end
$var parameter 32 M" IR_Type $end
$var parameter 32 N" Load_Store_Type $end
$var parameter 32 O" OR $end
$var parameter 32 P" SLL $end
$var parameter 32 Q" SLT $end
$var parameter 32 R" SLTU $end
$var parameter 32 S" SRA $end
$var parameter 32 T" SRL $end
$var parameter 32 U" SUB $end
$var parameter 32 V" XOR $end
$var reg 4 W" temp [3:0] $end
$upscope $end
$scope module MainDecoder $end
$var wire 7 X" opcode [6:0] $end
$var parameter 32 Y" B_Type $end
$var parameter 32 Z" BranchInst $end
$var parameter 32 [" Branch_Type $end
$var parameter 32 \" IR_Type $end
$var parameter 32 ]" I_Type $end
$var parameter 32 ^" I_TypeInst $end
$var parameter 32 _" J_Type $end
$var parameter 32 `" J_TypeInst $end
$var parameter 32 a" LoadInst $end
$var parameter 32 b" Load_Store_Type $end
$var parameter 32 c" R_TypeInst $end
$var parameter 32 d" S_Type $end
$var parameter 32 e" StoreInst $end
$var reg 2 f" ALUOp [1:0] $end
$var reg 1 t ALUSrc $end
$var reg 1 r Branch $end
$var reg 2 g" ImmSrc [1:0] $end
$var reg 1 k Jump $end
$var reg 1 i MemWrite $end
$var reg 1 R RegWrite $end
$var reg 2 h" ResultSrc [1:0] $end
$upscope $end
$upscope $end
$scope module DataMemory $end
$var wire 32 i" A [31:0] $end
$var wire 1 A CLK $end
$var wire 32 j" WD [31:0] $end
$var wire 1 g WE $end
$var wire 32 k" RD [31:0] $end
$var parameter 32 l" Width $end
$upscope $end
$scope module Decode $end
$var wire 1 A clk $end
$var wire 176 m" d [175:0] $end
$var wire 1 B rst $end
$var parameter 32 n" WIDTH $end
$var reg 176 o" q [175:0] $end
$upscope $end
$scope module Execute $end
$var wire 1 A clk $end
$var wire 105 p" d [104:0] $end
$var wire 1 B rst $end
$var parameter 32 q" WIDTH $end
$var reg 105 r" q [104:0] $end
$upscope $end
$scope module Fetch $end
$var wire 1 A clk $end
$var wire 96 s" d [95:0] $end
$var wire 1 B rst $end
$var parameter 32 t" WIDTH $end
$var reg 96 u" q [95:0] $end
$upscope $end
$scope module ImmExtnd $end
$var wire 2 v" InstType [1:0] $end
$var wire 25 w" Instr [31:7] $end
$var parameter 32 x" B_Type $end
$var parameter 32 y" I_Type $end
$var parameter 32 z" J_Type $end
$var parameter 32 {" S_Type $end
$var reg 32 |" ImmExt [31:0] $end
$upscope $end
$scope module InstructionMemory $end
$var wire 32 }" readAddr [31:0] $end
$var wire 32 ~" inst [31:0] $end
$var integer 32 !# i [31:0] $end
$upscope $end
$scope module Memory $end
$var wire 1 A clk $end
$var wire 104 "# d [103:0] $end
$var wire 1 B rst $end
$var parameter 32 ## WIDTH $end
$var reg 104 $# q [103:0] $end
$upscope $end
$scope module Mux2x1_ALUSrc $end
$var wire 32 %# A [31:0] $end
$var wire 32 &# B [31:0] $end
$var wire 1 s S $end
$var wire 32 '# Y [31:0] $end
$var parameter 32 (# WIDTH $end
$upscope $end
$scope module Mux2x1_PC $end
$var wire 32 )# A [31:0] $end
$var wire 32 *# B [31:0] $end
$var wire 1 D S $end
$var wire 32 +# Y [31:0] $end
$var parameter 32 ,# WIDTH $end
$upscope $end
$scope module Mux3x1_ResultSrc $end
$var wire 32 -# A [31:0] $end
$var wire 32 .# B [31:0] $end
$var wire 32 /# C [31:0] $end
$var wire 2 0# S [1:0] $end
$var wire 32 1# Y [31:0] $end
$var parameter 32 2# WIDTH $end
$var reg 32 3# temp [31:0] $end
$upscope $end
$scope module ProgramCounter $end
$var wire 1 A clk $end
$var wire 32 4# pc_in [31:0] $end
$var wire 1 B reset $end
$var wire 32 5# pc_out [31:0] $end
$var parameter 32 6# WIDTH $end
$var reg 32 7# temp [31:0] $end
$upscope $end
$scope module RegisterFile $end
$var wire 5 8# A1 [4:0] $end
$var wire 5 9# A2 [4:0] $end
$var wire 5 :# A3 [4:0] $end
$var wire 1 ;# CLK $end
$var wire 32 <# WD3 [31:0] $end
$var wire 1 O WE3 $end
$var wire 1 B reset $end
$var wire 32 =# RD2 [31:0] $end
$var wire 32 ># RD1 [31:0] $end
$var parameter 32 ?# ADDR_WIDTH $end
$var parameter 32 @# DATA_WIDTH $end
$var integer 32 A# i [31:0] $end
$upscope $end
$upscope $end
$upscope $end
$enddefinitions $end
$comment Show the parameter values. $end
$dumpall
b100000 @#
b101 ?#
b100000 6#
b100000 2#
b100000 ,#
b100000 (#
b1101000 ##
b1 {"
b11 z"
b0 y"
b10 x"
b1100000 t"
b1101001 q"
b10110000 n"
b100000 l"
b100011 e"
b1 d"
b110011 c"
b0 b"
b11 a"
b1101111 `"
b11 _"
b10011 ^"
b0 ]"
b10 \"
b1 ["
b1100011 Z"
b10 Y"
b101 V"
b1 U"
b110 T"
b111 S"
b100 R"
b11 Q"
b10 P"
b1000 O"
b0 N"
b10 M"
b1 L"
b1010 K"
b1101 J"
b1011 I"
b1110 H"
b1100 G"
b1001 F"
b0 E"
b100000 9"
b100000 5"
b101 0"
b100000 /"
b1 ."
b110 -"
b111 ,"
b100 +"
b11 *"
b10 )"
b1000 ("
b1010 '"
b1101 &"
b1011 %"
b1110 $"
b1100 #"
b1001 ""
b0 !"
b100000 z
$end
#0
$dumpvars
b100000 A#
b0 >#
b0 =#
b0 <#
1;#
b0 :#
b0 9#
b0 8#
bx 7#
bx 5#
bx 4#
b0 3#
b0 1#
b0 0#
b0 /#
b0 .#
b0 -#
bx +#
b0 *#
bx )#
b0 '#
b0 &#
b0 %#
b0 $#
b0xxxxxxxxxxxxxxxxxxxxxxxxxxxxxxxx00000 "#
b100000000 !#
bx ~"
bx }"
b0 |"
b0 w"
b0 v"
b0 u"
bx s"
b0 r"
b0 p"
b0 o"
b0 m"
bx k"
b0 j"
b0 i"
b0 h"
b0 g"
b0 f"
b0 X"
b0 W"
b0 D"
b0 C"
0B"
b0 A"
b0 @"
b0 ?"
b0 >"
b0 ="
b0 <"
0;"
b0 :"
b0 8"
b0 7"
b0 6"
bx 4"
bx 3"
b100 2"
b0 1"
b0 ~
b0 }
b0 |
b0 {
b0 y
b0 x
b0 w
b0 v
b0 u
0t
0s
0r
0q
b0 p
b0 o
b0 n
b0 m
bx l
0k
0j
0i
0h
0g
b0 f
b0 e
bx d
bx c
b0 b
b0 a
bx `
b0 _
b0 ^
b0 ]
b0 \
b0 [
b0 Z
b0 Y
b0 X
b0 W
b0 V
b0 U
bx T
b0 S
0R
0Q
0P
0O
b0 N
b0 M
b0 L
b0 K
b0 J
b0 I
b0 H
1G
b0 F
b0 E
0D
0C
1B
0A
b0 @
b0 ?
b0 >
b0 =
b0 <
b0 ;
b0 :
b0 9
b0 8
b0 7
b0 6
b0 5
b0 4
b0 3
b0 2
b0 1
b0 0
b0 /
b0 .
b0 -
b0 ,
b0 +
b0 *
b0 )
b0 (
b0 '
b0 &
b0 %
b0 $
b0 #
b0 "
b0 !
$end
#1000
b100000000010000010011 l
b100000000010000010011 ~"
b100 c
b100 +#
b100 4#
0;#
b100 `
b100 4"
b100 )#
b1000000000100000100110000000000000000000000000000000000000000000000000000000000000100 s"
b0 d
b0 3"
b0 }"
b0 5#
b0 7#
1A
#2000
b100000 A#
1;#
0A
#3000
0;#
1A
#4000
b100000 A#
1;#
0A
#5000
1R
1t
b10 ?"
b10 C"
b10 f"
b1 p
b1 |"
b1000 X
b10011 <"
b10011 X"
b1 9#
b10000000001000 w"
bx S
bx .#
b10000000001000000000000000000000000000000000000000000000000000000000000000000000000000000000000000000000000010000000000000000000000000000000000100000000000000000000000000000100 m"
b100 b
b100000000010000010011 m
b0xxxxxxxxxxxxxxxxxxxxxxxxxxxxxxxx00000 $#
b1000000000100000100110000000000000000000000000000000000000000000000000000000000000100 u"
b101000000000010100010011 l
b101000000000010100010011 ~"
b1000 c
b1000 +#
b1000 4#
0;#
b1000 `
b1000 4"
b1000 )#
b1010000000000101000100110000000000000000000000000000010000000000000000000000000000001000 s"
b100 d
b100 3"
b100 }"
b100 5#
b100 7#
1A
0B
#6000
1;#
0A
#7000
b1010 p
b1010 |"
0G
b1 w
b1 |
b1 1"
b1010 X
b1010 9#
b10100000000001010 w"
b1 I
b1 ~
b1 '#
b1000 b
b10000000001000000000000000000000000000000000000000000000000000000000000000000000000000000000000000000000100010100000000000000000000000000000101000000000000000000000000000001000 m"
b100 f
b101000000000010100010011 m
b100 a
b1 ]
b1 8"
b1 *#
b1 o
b1 7"
b1 &#
b1000 W
1s
b100000000000000000000000000000000001000000000000000000000000000000000100000000000000000000000000000000100 p"
1Q
b1010000000000101000100110000000000000000000000000000010000000000000000000000000000001000 u"
b10000000001000000000000000000000000000000000000000000000000000000000000000000000000000000000000000000000000010000000000000000000000000000000000100000000000000000000000000000100 o"
b10000000000010110010011 l
b10000000000010110010011 ~"
b1100 c
b1100 +#
b1100 4#
0;#
b1100 `
b1100 4"
b1100 )#
b100000000000101100100110000000000000000000000000000100000000000000000000000000000001100 s"
b1000 d
b1000 3"
b1000 }"
b1000 5#
b1000 7#
1A
#8000
1;#
0A
#9000
b1010 w
b1010 |
b1010 1"
b100 p
b100 |"
b1010 I
b1010 ~
b1010 '#
b1011 X
b100 9#
b1000000000001011 w"
b100 _
b1000 V
b1 v
b1 i"
b1000000000000000000000000000000010000000000000000000000000000000001xxxxxxxxxxxxxxxxxxxxxxxxxxxxxxxx01000 "#
1P
b1000 a
b1010 o
b1010 7"
b1010 &#
b100000000000000000000000000000001010000000000000000000000000000000000101000000000000000000000000000001000 p"
b1010 W
b1110 ]
b1110 8"
b1110 *#
b100 e
b100 6"
b1100 b
b10000000001000000000000000000000000000000000000000000000000000000000000000000000000000000000000000000001000010110000000000000000000000000000010000000000000000000000000000001100 m"
b1000 f
b10000000000010110010011 m
b100000000000000000000000000000000001000000000000000000000000000000000100000000000000000000000000000000100 r"
b10000000001000000000000000000000000000000000000000000000000000000000000000000000000000000000000000000000100010100000000000000000000000000000101000000000000000000000000000001000 o"
b100000000000101100100110000000000000000000000000000100000000000000000000000000000001100 u"
b11111111111000000000011010010011 l
b11111111111000000000011010010011 ~"
b10000 c
b10000 +#
b10000 4#
0;#
b10000 `
b10000 4"
b10000 )#
b111111111110000000000110100100110000000000000000000000000000110000000000000000000000000000010000 s"
b1100 d
b1100 3"
b1100 }"
b1100 5#
b1100 7#
1A
#10000
1;#
0A
#11000
b11111111111111111111111111111110 p
b11111111111111111111111111111110 |"
b100 w
b100 |
b100 1"
b1101 X
1;"
b11110 9#
b1111111111100000000001101 w"
b100 I
b100 ~
b100 '#
b1 J
b1 1#
b1 <#
b1 3#
b10000 b
b10000000001000000000000000000000000000000000000000000000000000000000000000000000000000000000000000000001100011011111111111111111111111111111111000000000000000000000000000010000 m"
b1100 f
b11111111111000000000011010010011 m
b1100 a
b100 o
b100 7"
b100 &#
b100000000000000000000000000000000100000000000000000000000000000000000101100000000000000000000000000001100 p"
b1011 W
b1100 ]
b1100 8"
b1100 *#
b1000 e
b1000 6"
b1000 _
b1010 V
b1000000000000000000000000000000100000000000000000000000000000001010xxxxxxxxxxxxxxxxxxxxxxxxxxxxxxxx01010 "#
b1010 v
b1010 i"
b1000 U
b1000 :#
b1 u
b1 -#
b100 ^
b100 /#
1O
b111111111110000000000110100100110000000000000000000000000000110000000000000000000000000000010000 u"
b10000000001000000000000000000000000000000000000000000000000000000000000000000000000000000000000000000001000010110000000000000000000000000000010000000000000000000000000000001100 o"
b100000000000000000000000000000001010000000000000000000000000000000000101000000000000000000000000000001000 r"
b1000000000000000000000000000000010000000000000000000000000000000001xxxxxxxxxxxxxxxxxxxxxxxxxxxxxxxx01000 $#
b110100000000011100010011 l
b110100000000011100010011 ~"
b10100 c
b10100 +#
b10100 4#
0;#
b10100 `
b10100 4"
b10100 )#
b1101000000000111000100110000000000000000000000000001000000000000000000000000000000010100 s"
b10000 d
b10000 3"
b10000 }"
b10000 5#
b10000 7#
1A
#12000
b1 ,
1;#
0A
#13000
b11111111111111111111111111111110 w
b11111111111111111111111111111110 |
b11111111111111111111111111111110 1"
b1101 p
b1101 |"
b1010 J
b1010 1#
b1010 <#
b1010 3#
b11111111111111111111111111111110 I
b11111111111111111111111111111110 ~
b11111111111111111111111111111110 '#
b1110 X
0;"
b1101 9#
b11010000000001110 w"
b1010 U
b1010 :#
b1010 u
b1010 -#
b1000 ^
b1000 /#
b1100 _
b1011 V
b1000000000000000000000000000000110000000000000000000000000000000100xxxxxxxxxxxxxxxxxxxxxxxxxxxxxxxx01011 "#
b100 v
b100 i"
b10000 a
b11111111111111111111111111111110 o
b11111111111111111111111111111110 7"
b11111111111111111111111111111110 &#
b100011111111111111111111111111111110000000000000000000000000000000000110100000000000000000000000000010000 p"
b1101 W
b1010 ]
b1010 8"
b1010 *#
b1100 e
b1100 6"
b10100 b
b10000000001000000000000000000000000000000000000000000000000000000000000000000000000000000000000000000010000011100000000000000000000000000000110100000000000000000000000000010100 m"
b10000 f
b110100000000011100010011 m
b1000000000000000000000000000000100000000000000000000000000000001010xxxxxxxxxxxxxxxxxxxxxxxxxxxxxxxx01010 $#
b100000000000000000000000000000000100000000000000000000000000000000000101100000000000000000000000000001100 r"
b10000000001000000000000000000000000000000000000000000000000000000000000000000000000000000000000000000001100011011111111111111111111111111111111000000000000000000000000000010000 o"
b1101000000000111000100110000000000000000000000000001000000000000000000000000000000010100 u"
b11111111000100000000011110010011 l
b11111111000100000000011110010011 ~"
b11000 c
b11000 +#
b11000 4#
0;#
b11000 `
b11000 4"
b11000 )#
b111111110001000000000111100100110000000000000000000000000001010000000000000000000000000000011000 s"
b10100 d
b10100 3"
b10100 }"
b10100 5#
b10100 7#
1A
#14000
b1010 "
1;#
0A
#15000
b11111111111111111111111111110001 p
b11111111111111111111111111110001 |"
b1101 w
b1101 |
b1101 1"
b1111 X
1;"
b10001 9#
b1111111100010000000001111 w"
b1101 I
b1101 ~
b1101 '#
b0 T
b0 k"
b100 J
b100 1#
b100 <#
b100 3#
b11000 b
b10000000001000000000000000000000000000000000000000000000000000000000000000000000000000000000000000000010100011111111111111111111111111111111000100000000000000000000000000011000 m"
b10100 f
b11111111000100000000011110010011 m
b10100 a
b1101 o
b1101 7"
b1101 &#
b100000000000000000000000000000001101000000000000000000000000000000000111000000000000000000000000000010100 p"
b1110 W
b11101 ]
b11101 8"
b11101 *#
b10000 e
b10000 6"
b10000 _
b1101 V
b10000000000000000000000000000010000111111111111111111111111111111100000000000000000000000000000000001101 "#
b11111111111111111111111111111110 v
b11111111111111111111111111111110 i"
b1011 U
b1011 :#
b100 u
b100 -#
b1100 ^
b1100 /#
b111111110001000000000111100100110000000000000000000000000001010000000000000000000000000000011000 u"
b10000000001000000000000000000000000000000000000000000000000000000000000000000000000000000000000000000010000011100000000000000000000000000000110100000000000000000000000000010100 o"
b100011111111111111111111111111111110000000000000000000000000000000000110100000000000000000000000000010000 r"
b1000000000000000000000000000000110000000000000000000000000000000100xxxxxxxxxxxxxxxxxxxxxxxxxxxxxxxx01011 $#
b101001000000010010110011 l
b101001000000010010110011 ~"
b11100 c
b11100 +#
b11100 4#
0;#
b11100 `
b11100 4"
b11100 )#
b1010010000000100101100110000000000000000000000000001100000000000000000000000000000011100 s"
b11000 d
b11000 3"
b11000 }"
b11000 5#
b11000 7#
1A
#16000
b100 #
1;#
0A
#17000
b11111111111111111111111111110001 w
b11111111111111111111111111110001 |
b11111111111111111111111111110001 1"
1B"
0t
b1 \
b1 >#
b1010 Z
b1010 =#
b1010 p
b1010 |"
b11111111111111111111111111111110 J
b11111111111111111111111111111110 1#
b11111111111111111111111111111110 <#
b11111111111111111111111111111110 3#
bx T
bx k"
b11111111111111111111111111110001 I
b11111111111111111111111111110001 ~
b11111111111111111111111111110001 '#
b1001 X
b110011 <"
b110011 X"
0;"
b1000 8#
b1010 9#
b10100100000001001 w"
b1101 U
b1101 :#
b0 S
b0 .#
b11111111111111111111111111111110 u
b11111111111111111111111111111110 -#
b10000 ^
b10000 /#
b10100 _
b1110 V
b1000000000000000000000000000001010000000000000000000000000000001101xxxxxxxxxxxxxxxxxxxxxxxxxxxxxxxx01110 "#
b1101 v
b1101 i"
b11000 a
b11111111111111111111111111110001 o
b11111111111111111111111111110001 7"
b11111111111111111111111111110001 &#
b100011111111111111111111111111110001000000000000000000000000000000000111100000000000000000000000000011000 p"
b1111 W
b101 ]
b101 8"
b101 *#
b10100 e
b10100 6"
b11100 b
b10000000000000000000000000000000000000000010000000000000000000000000000101000000000000000000000000000011000010010000000000000000000000000000101000000000000000000000000000011100 m"
b11000 f
b101001000000010010110011 m
b10000000000000000000000000000010000111111111111111111111111111111100000000000000000000000000000000001101 $#
b100000000000000000000000000000001101000000000000000000000000000000000111000000000000000000000000000010100 r"
b10000000001000000000000000000000000000000000000000000000000000000000000000000000000000000000000000000010100011111111111111111111111111111111000100000000000000000000000000011000 o"
b1010010000000100101100110000000000000000000000000001100000000000000000000000000000011100 u"
b1000000110101011000100100110011 l
b1000000110101011000100100110011 ~"
b100000 c
b100000 +#
b100000 4#
0;#
b100000 `
b100000 4"
b100000 )#
b10000001101010110001001001100110000000000000000000000000001110000000000000000000000000000100000 s"
b11100 d
b11100 3"
b11100 }"
b11100 5#
b11100 7#
1A
#18000
b11111111111111111111111111111110 %
1;#
0A
#19000
b1 y
b1 @"
b1 D"
b1 W"
b100 \
b100 >#
b11111111111111111111111111111110 Z
b11111111111111111111111111111110 =#
b10000001101 p
b10000001101 |"
b10010 X
1;"
b1011 8#
b1101 9#
b100000011010101100010010 w"
b1011 w
b1011 |
b1011 1"
b1010 I
b1010 ~
b1010 '#
b0 T
b0 k"
b1101 J
b1101 1#
b1101 <#
b1101 3#
b100000 b
b10000000010000000000000000000000000000001001111111111111111111111111111111000000000000000000000000000011100100100000000000000000000001000000110100000000000000000000000000100000 m"
b11100 f
b1000000110101011000100100110011 m
b11100 a
b1010 o
b1010 7"
b1010 &#
b1001 W
b100010 ]
b100010 8"
b100010 *#
b11000 e
b11000 6"
b100000000000000000000000000000001011000000000000000000000000000010100100100000000000000000000000000011100 p"
b1010 F
b1010 Y
b1010 %#
b1 E
b1 }
b1 [
0s
b11000 _
b1111 V
b10000000000000000000000000000011000111111111111111111111111111100010000000000000000000000000000000001111 "#
b11111111111111111111111111110001 v
b11111111111111111111111111110001 i"
b1110 U
b1110 :#
bx S
bx .#
b1101 u
b1101 -#
b10100 ^
b10100 /#
b10000001101010110001001001100110000000000000000000000000001110000000000000000000000000000100000 u"
b10000000000000000000000000000000000000000010000000000000000000000000000101000000000000000000000000000011000010010000000000000000000000000000101000000000000000000000000000011100 o"
b100011111111111111111111111111110001000000000000000000000000000000000111100000000000000000000000000011000 r"
b1000000000000000000000000000001010000000000000000000000000000001101xxxxxxxxxxxxxxxxxxxxxxxxxxxxxxxx01110 $#
b101101010111100110110011 l
b101101010111100110110011 ~"
b100100 c
b100100 +#
b100100 4#
0;#
b100100 `
b100100 4"
b100100 )#
b1011010101111001101100110000000000000000000000000010000000000000000000000000000000100100 s"
b100000 d
b100000 3"
b100000 }"
b100000 5#
b100000 7#
1A
#20000
b1101 &
1;#
0A
#21000
b1001 y
b1001 @"
b1001 D"
b1001 W"
b1010 \
b1010 >#
b100 Z
b100 =#
b1011 p
b1011 |"
b11111111111111111111111111110001 J
b11111111111111111111111111110001 1#
b11111111111111111111111111110001 <#
b11111111111111111111111111110001 3#
bx T
bx k"
b11111111111111111111111111111110 I
b11111111111111111111111111111110 ~
b11111111111111111111111111111110 '#
b110 w
b110 |
b110 1"
b10011 X
b111 :"
b111 A"
0;"
b1010 8#
b1011 9#
b10110101011110011 w"
b1111 U
b1111 :#
b0 S
b0 .#
b11111111111111111111111111110001 u
b11111111111111111111111111110001 -#
b11000 ^
b11000 /#
b11100 _
b1001 V
b1010 H
b1010 j"
b1000000000000000000000000000001110000000000000000000000000000001011xxxxxxxxxxxxxxxxxxxxxxxxxxxxxxxx01001 "#
b1011 v
b1011 i"
b100000 a
b10000001101 o
b10000001101 7"
b10000001101 &#
b10010 W
b10000101001 ]
b10000101001 8"
b10000101001 *#
b11100 e
b11100 6"
b100000000000000000000000000000000110111111111111111111111111111111101001000000000000000000000000000100000 p"
b11111111111111111111111111111110 F
b11111111111111111111111111111110 Y
b11111111111111111111111111111110 %#
b100 E
b100 }
b100 [
b1 x
b1 {
b100100 b
b10000010010000000000000000000000000000010100000000000000000000000000000010000000000000000000000000000100000100110000000000000000000000000000101100000000000000000000000000100100 m"
b100000 f
b101101010111100110110011 m
b10000000000000000000000000000011000111111111111111111111111111100010000000000000000000000000000000001111 $#
b100000000000000000000000000000001011000000000000000000000000000010100100100000000000000000000000000011100 r"
b10000000010000000000000000000000000000001001111111111111111111111111111111000000000000000000000000000011100100100000000000000000000001000000110100000000000000000000000000100000 o"
b1011010101111001101100110000000000000000000000000010000000000000000000000000000000100100 u"
b1001101111101000010011 l
b1001101111101000010011 ~"
b101000 c
b101000 +#
b101000 4#
0;#
b101000 `
b101000 4"
b101000 )#
b10011011111010000100110000000000000000000000000010010000000000000000000000000000101000 s"
b100100 d
b100100 3"
b100100 }"
b100100 5#
b100100 7#
1A
#22000
b11111111111111111111111111110001 '
1;#
0A
#23000
0B"
1t
b11111111111111111111111111111110 \
b11111111111111111111111111111110 >#
b0 Z
b0 =#
b10 p
b10 |"
1G
b10100 X
b10011 <"
b10011 X"
b1101 8#
b10 9#
b100110111110100 w"
b100 I
b100 ~
b100 '#
b0 w
b0 |
b0 1"
b1011 J
b1011 1#
b1011 <#
b1011 3#
b101000 b
b10000010011111111111111111111111111111111100000000000000000000000000000000000000000000000000000000000100100101000000000000000000000000000000001000000000000000000000000000101000 m"
b100100 f
b1001101111101000010011 m
b100100 a
b1011 o
b1011 7"
b1011 &#
b10011 W
b101011 ]
b101011 8"
b101011 *#
b100000 e
b100000 6"
b100000000000000000000000000000000000000000000000000000000000000001001001100000000000000000000000000100100 p"
b100 F
b100 Y
b100 %#
b1010 E
b1010 }
b1010 [
b1001 x
b1001 {
b100000 _
b10010 V
b11111111111111111111111111111110 H
b11111111111111111111111111111110 j"
b1000000000000000000000000000010000000000000000000000000000000000110xxxxxxxxxxxxxxxxxxxxxxxxxxxxxxxx10010 "#
b110 v
b110 i"
b1001 U
b1001 :#
bx S
bx .#
b1011 u
b1011 -#
b11100 ^
b11100 /#
b10011011111010000100110000000000000000000000000010010000000000000000000000000000101000 u"
b10000010010000000000000000000000000000010100000000000000000000000000000010000000000000000000000000000100000100110000000000000000000000000000101100000000000000000000000000100100 o"
b100000000000000000000000000000000110111111111111111111111111111111101001000000000000000000000000000100000 r"
b1000000000000000000000000000001110000000000000000000000000000001011xxxxxxxxxxxxxxxxxxxxxxxxxxxxxxxx01001 $#
b100001010110101010110011 l
b100001010110101010110011 ~"
b101100 c
b101100 +#
b101100 4#
0;#
b101100 `
b101100 4"
b101100 )#
b1000010101101010101100110000000000000000000000000010100000000000000000000000000000101100 s"
b101000 d
b101000 3"
b101000 }"
b101000 5#
b101000 7#
1A
#24000
b1011 -
1;#
0A
